%YAML 1.1
%TAG !u! tag:unity3d.com,2011:
--- !u!29 &1
OcclusionCullingSettings:
  m_ObjectHideFlags: 0
  serializedVersion: 2
  m_OcclusionBakeSettings:
    smallestOccluder: 5
    smallestHole: 0.25
    backfaceThreshold: 100
  m_SceneGUID: 00000000000000000000000000000000
  m_OcclusionCullingData: {fileID: 0}
--- !u!104 &2
RenderSettings:
  m_ObjectHideFlags: 0
  serializedVersion: 9
  m_Fog: 0
  m_FogColor: {r: 0.5, g: 0.5, b: 0.5, a: 1}
  m_FogMode: 3
  m_FogDensity: 0.01
  m_LinearFogStart: 0
  m_LinearFogEnd: 300
  m_AmbientSkyColor: {r: 0.212, g: 0.227, b: 0.259, a: 1}
  m_AmbientEquatorColor: {r: 0.114, g: 0.125, b: 0.133, a: 1}
  m_AmbientGroundColor: {r: 0.047, g: 0.043, b: 0.035, a: 1}
  m_AmbientIntensity: 1
  m_AmbientMode: 0
  m_SubtractiveShadowColor: {r: 0.42, g: 0.478, b: 0.627, a: 1}
  m_SkyboxMaterial: {fileID: 10304, guid: 0000000000000000f000000000000000, type: 0}
  m_HaloStrength: 0.5
  m_FlareStrength: 1
  m_FlareFadeSpeed: 3
  m_HaloTexture: {fileID: 0}
  m_SpotCookie: {fileID: 10001, guid: 0000000000000000e000000000000000, type: 0}
  m_DefaultReflectionMode: 0
  m_DefaultReflectionResolution: 128
  m_ReflectionBounces: 1
  m_ReflectionIntensity: 1
  m_CustomReflection: {fileID: 0}
  m_Sun: {fileID: 0}
  m_IndirectSpecularColor: {r: 0, g: 0, b: 0, a: 1}
  m_UseRadianceAmbientProbe: 0
--- !u!157 &3
LightmapSettings:
  m_ObjectHideFlags: 0
  serializedVersion: 11
  m_GIWorkflowMode: 0
  m_GISettings:
    serializedVersion: 2
    m_BounceScale: 1
    m_IndirectOutputScale: 1
    m_AlbedoBoost: 1
    m_EnvironmentLightingMode: 0
    m_EnableBakedLightmaps: 1
    m_EnableRealtimeLightmaps: 1
  m_LightmapEditorSettings:
    serializedVersion: 12
    m_Resolution: 2
    m_BakeResolution: 40
    m_AtlasSize: 1024
    m_AO: 0
    m_AOMaxDistance: 1
    m_CompAOExponent: 1
    m_CompAOExponentDirect: 0
    m_ExtractAmbientOcclusion: 0
    m_Padding: 2
    m_LightmapParameters: {fileID: 0}
    m_LightmapsBakeMode: 1
    m_TextureCompression: 1
    m_FinalGather: 0
    m_FinalGatherFiltering: 1
    m_FinalGatherRayCount: 256
    m_ReflectionCompression: 2
    m_MixedBakeMode: 2
    m_BakeBackend: 0
    m_PVRSampling: 1
    m_PVRDirectSampleCount: 32
    m_PVRSampleCount: 500
    m_PVRBounces: 2
    m_PVREnvironmentSampleCount: 500
    m_PVREnvironmentReferencePointCount: 2048
    m_PVRFilteringMode: 2
    m_PVRDenoiserTypeDirect: 0
    m_PVRDenoiserTypeIndirect: 0
    m_PVRDenoiserTypeAO: 0
    m_PVRFilterTypeDirect: 0
    m_PVRFilterTypeIndirect: 0
    m_PVRFilterTypeAO: 0
    m_PVREnvironmentMIS: 0
    m_PVRCulling: 1
    m_PVRFilteringGaussRadiusDirect: 1
    m_PVRFilteringGaussRadiusIndirect: 5
    m_PVRFilteringGaussRadiusAO: 2
    m_PVRFilteringAtrousPositionSigmaDirect: 0.5
    m_PVRFilteringAtrousPositionSigmaIndirect: 2
    m_PVRFilteringAtrousPositionSigmaAO: 1
    m_ExportTrainingData: 0
    m_TrainingDataDestination: TrainingData
    m_LightProbeSampleCountMultiplier: 4
  m_LightingDataAsset: {fileID: 0}
  m_UseShadowmask: 1
--- !u!196 &4
NavMeshSettings:
  serializedVersion: 2
  m_ObjectHideFlags: 0
  m_BuildSettings:
    serializedVersion: 2
    agentTypeID: 0
    agentRadius: 0.5
    agentHeight: 2
    agentSlope: 45
    agentClimb: 0.4
    ledgeDropHeight: 0
    maxJumpAcrossDistance: 0
    minRegionArea: 2
    manualCellSize: 0
    cellSize: 0.16666667
    manualTileSize: 0
    tileSize: 256
    accuratePlacement: 0
    debug:
      m_Flags: 0
  m_NavMeshData: {fileID: 0}
--- !u!1001 &4219439
PrefabInstance:
  m_ObjectHideFlags: 0
  serializedVersion: 2
  m_Modification:
    m_TransformParent: {fileID: 332136631}
    m_Modifications:
    - target: {fileID: 4766840111595468, guid: 0ed7946982320464596b995b61ecdf34, type: 2}
      propertyPath: m_LocalPosition.x
      value: 2.3491266
      objectReference: {fileID: 0}
    - target: {fileID: 4766840111595468, guid: 0ed7946982320464596b995b61ecdf34, type: 2}
      propertyPath: m_LocalPosition.y
      value: 0
      objectReference: {fileID: 0}
    - target: {fileID: 4766840111595468, guid: 0ed7946982320464596b995b61ecdf34, type: 2}
      propertyPath: m_LocalPosition.z
      value: -2.7365427
      objectReference: {fileID: 0}
    - target: {fileID: 4766840111595468, guid: 0ed7946982320464596b995b61ecdf34, type: 2}
      propertyPath: m_LocalRotation.x
      value: 0.000000021855694
      objectReference: {fileID: 0}
    - target: {fileID: 4766840111595468, guid: 0ed7946982320464596b995b61ecdf34, type: 2}
      propertyPath: m_LocalRotation.y
      value: 0
      objectReference: {fileID: 0}
    - target: {fileID: 4766840111595468, guid: 0ed7946982320464596b995b61ecdf34, type: 2}
      propertyPath: m_LocalRotation.z
      value: -0
      objectReference: {fileID: 0}
    - target: {fileID: 4766840111595468, guid: 0ed7946982320464596b995b61ecdf34, type: 2}
      propertyPath: m_LocalRotation.w
      value: 1
      objectReference: {fileID: 0}
    - target: {fileID: 4766840111595468, guid: 0ed7946982320464596b995b61ecdf34, type: 2}
      propertyPath: m_RootOrder
      value: 13
      objectReference: {fileID: 0}
    m_RemovedComponents: []
  m_SourcePrefab: {fileID: 100100000, guid: 0ed7946982320464596b995b61ecdf34, type: 2}
--- !u!4 &4219440 stripped
Transform:
  m_CorrespondingSourceObject: {fileID: 0}
  m_PrefabInstance: {fileID: 4219439}
  m_PrefabAsset: {fileID: 0}
--- !u!1001 &46169604
PrefabInstance:
  m_ObjectHideFlags: 0
  serializedVersion: 2
  m_Modification:
    m_TransformParent: {fileID: 332136631}
    m_Modifications:
    - target: {fileID: 4354455578999456, guid: 64284ca1518bc524492fa4fc9e82ce94, type: 3}
      propertyPath: m_LocalPosition.x
      value: 6.341028
      objectReference: {fileID: 0}
    - target: {fileID: 4354455578999456, guid: 64284ca1518bc524492fa4fc9e82ce94, type: 3}
      propertyPath: m_LocalPosition.y
      value: 0.9421537
      objectReference: {fileID: 0}
    - target: {fileID: 4354455578999456, guid: 64284ca1518bc524492fa4fc9e82ce94, type: 3}
      propertyPath: m_LocalPosition.z
      value: 3.8619435
      objectReference: {fileID: 0}
    - target: {fileID: 4354455578999456, guid: 64284ca1518bc524492fa4fc9e82ce94, type: 3}
      propertyPath: m_LocalRotation.x
      value: 0.000000021855694
      objectReference: {fileID: 0}
    - target: {fileID: 4354455578999456, guid: 64284ca1518bc524492fa4fc9e82ce94, type: 3}
      propertyPath: m_LocalRotation.y
      value: 0
      objectReference: {fileID: 0}
    - target: {fileID: 4354455578999456, guid: 64284ca1518bc524492fa4fc9e82ce94, type: 3}
      propertyPath: m_LocalRotation.z
      value: -0
      objectReference: {fileID: 0}
    - target: {fileID: 4354455578999456, guid: 64284ca1518bc524492fa4fc9e82ce94, type: 3}
      propertyPath: m_LocalRotation.w
      value: 1
      objectReference: {fileID: 0}
    - target: {fileID: 4354455578999456, guid: 64284ca1518bc524492fa4fc9e82ce94, type: 3}
      propertyPath: m_RootOrder
      value: 6
      objectReference: {fileID: 0}
    m_RemovedComponents: []
  m_SourcePrefab: {fileID: 100100000, guid: 64284ca1518bc524492fa4fc9e82ce94, type: 3}
--- !u!4 &46169605 stripped
Transform:
  m_CorrespondingSourceObject: {fileID: 4354455578999456, guid: 64284ca1518bc524492fa4fc9e82ce94,
    type: 3}
  m_PrefabInstance: {fileID: 46169604}
  m_PrefabAsset: {fileID: 0}
--- !u!1001 &80889732
PrefabInstance:
  m_ObjectHideFlags: 0
  serializedVersion: 2
  m_Modification:
    m_TransformParent: {fileID: 332136631}
    m_Modifications:
    - target: {fileID: 4418030102554518, guid: 331828e5d69fcf148a4fa6dadc2c2f41, type: 3}
      propertyPath: m_LocalPosition.x
      value: 0.44337776
      objectReference: {fileID: 0}
    - target: {fileID: 4418030102554518, guid: 331828e5d69fcf148a4fa6dadc2c2f41, type: 3}
      propertyPath: m_LocalPosition.y
      value: 0.47787723
      objectReference: {fileID: 0}
    - target: {fileID: 4418030102554518, guid: 331828e5d69fcf148a4fa6dadc2c2f41, type: 3}
      propertyPath: m_LocalPosition.z
      value: 4.937675
      objectReference: {fileID: 0}
    - target: {fileID: 4418030102554518, guid: 331828e5d69fcf148a4fa6dadc2c2f41, type: 3}
      propertyPath: m_LocalRotation.x
      value: 0.000000021855694
      objectReference: {fileID: 0}
    - target: {fileID: 4418030102554518, guid: 331828e5d69fcf148a4fa6dadc2c2f41, type: 3}
      propertyPath: m_LocalRotation.y
      value: 0
      objectReference: {fileID: 0}
    - target: {fileID: 4418030102554518, guid: 331828e5d69fcf148a4fa6dadc2c2f41, type: 3}
      propertyPath: m_LocalRotation.z
      value: -0
      objectReference: {fileID: 0}
    - target: {fileID: 4418030102554518, guid: 331828e5d69fcf148a4fa6dadc2c2f41, type: 3}
      propertyPath: m_LocalRotation.w
      value: 1
      objectReference: {fileID: 0}
    - target: {fileID: 4418030102554518, guid: 331828e5d69fcf148a4fa6dadc2c2f41, type: 3}
      propertyPath: m_RootOrder
      value: 20
      objectReference: {fileID: 0}
    m_RemovedComponents: []
  m_SourcePrefab: {fileID: 100100000, guid: 331828e5d69fcf148a4fa6dadc2c2f41, type: 3}
--- !u!4 &80889733 stripped
Transform:
  m_CorrespondingSourceObject: {fileID: 4418030102554518, guid: 331828e5d69fcf148a4fa6dadc2c2f41,
    type: 3}
  m_PrefabInstance: {fileID: 80889732}
  m_PrefabAsset: {fileID: 0}
--- !u!1001 &81446456
PrefabInstance:
  m_ObjectHideFlags: 0
  serializedVersion: 2
  m_Modification:
    m_TransformParent: {fileID: 332136631}
    m_Modifications:
    - target: {fileID: 4157493970241298, guid: 8b49696b2432a634e9f45dd8ad4aab80, type: 3}
      propertyPath: m_LocalPosition.x
      value: -5.671555
      objectReference: {fileID: 0}
    - target: {fileID: 4157493970241298, guid: 8b49696b2432a634e9f45dd8ad4aab80, type: 3}
      propertyPath: m_LocalPosition.y
      value: 0
      objectReference: {fileID: 0}
    - target: {fileID: 4157493970241298, guid: 8b49696b2432a634e9f45dd8ad4aab80, type: 3}
      propertyPath: m_LocalPosition.z
      value: -4.9578896
      objectReference: {fileID: 0}
    - target: {fileID: 4157493970241298, guid: 8b49696b2432a634e9f45dd8ad4aab80, type: 3}
      propertyPath: m_LocalRotation.x
      value: 0.000000021855694
      objectReference: {fileID: 0}
    - target: {fileID: 4157493970241298, guid: 8b49696b2432a634e9f45dd8ad4aab80, type: 3}
      propertyPath: m_LocalRotation.y
      value: 0
      objectReference: {fileID: 0}
    - target: {fileID: 4157493970241298, guid: 8b49696b2432a634e9f45dd8ad4aab80, type: 3}
      propertyPath: m_LocalRotation.z
      value: -0
      objectReference: {fileID: 0}
    - target: {fileID: 4157493970241298, guid: 8b49696b2432a634e9f45dd8ad4aab80, type: 3}
      propertyPath: m_LocalRotation.w
      value: 1
      objectReference: {fileID: 0}
    - target: {fileID: 4157493970241298, guid: 8b49696b2432a634e9f45dd8ad4aab80, type: 3}
      propertyPath: m_RootOrder
      value: 31
      objectReference: {fileID: 0}
    m_RemovedComponents: []
  m_SourcePrefab: {fileID: 100100000, guid: 8b49696b2432a634e9f45dd8ad4aab80, type: 3}
--- !u!4 &81446457 stripped
Transform:
  m_CorrespondingSourceObject: {fileID: 4157493970241298, guid: 8b49696b2432a634e9f45dd8ad4aab80,
    type: 3}
  m_PrefabInstance: {fileID: 81446456}
  m_PrefabAsset: {fileID: 0}
--- !u!1001 &97979284
PrefabInstance:
  m_ObjectHideFlags: 0
  serializedVersion: 2
  m_Modification:
    m_TransformParent: {fileID: 332136631}
    m_Modifications:
    - target: {fileID: 4234545607151044, guid: 33bf31b2b982a14499d546025065ad22, type: 3}
      propertyPath: m_LocalPosition.x
      value: 10.643766
      objectReference: {fileID: 0}
    - target: {fileID: 4234545607151044, guid: 33bf31b2b982a14499d546025065ad22, type: 3}
      propertyPath: m_LocalPosition.y
      value: 1.4233657
      objectReference: {fileID: 0}
    - target: {fileID: 4234545607151044, guid: 33bf31b2b982a14499d546025065ad22, type: 3}
      propertyPath: m_LocalPosition.z
      value: 3.825343
      objectReference: {fileID: 0}
    - target: {fileID: 4234545607151044, guid: 33bf31b2b982a14499d546025065ad22, type: 3}
      propertyPath: m_LocalRotation.x
      value: 0.000000021855694
      objectReference: {fileID: 0}
    - target: {fileID: 4234545607151044, guid: 33bf31b2b982a14499d546025065ad22, type: 3}
      propertyPath: m_LocalRotation.y
      value: 0
      objectReference: {fileID: 0}
    - target: {fileID: 4234545607151044, guid: 33bf31b2b982a14499d546025065ad22, type: 3}
      propertyPath: m_LocalRotation.z
      value: -0
      objectReference: {fileID: 0}
    - target: {fileID: 4234545607151044, guid: 33bf31b2b982a14499d546025065ad22, type: 3}
      propertyPath: m_LocalRotation.w
      value: 1
      objectReference: {fileID: 0}
    - target: {fileID: 4234545607151044, guid: 33bf31b2b982a14499d546025065ad22, type: 3}
      propertyPath: m_RootOrder
      value: 7
      objectReference: {fileID: 0}
    m_RemovedComponents: []
  m_SourcePrefab: {fileID: 100100000, guid: 33bf31b2b982a14499d546025065ad22, type: 3}
--- !u!4 &97979285 stripped
Transform:
  m_CorrespondingSourceObject: {fileID: 4234545607151044, guid: 33bf31b2b982a14499d546025065ad22,
    type: 3}
  m_PrefabInstance: {fileID: 97979284}
  m_PrefabAsset: {fileID: 0}
--- !u!1001 &198636358
PrefabInstance:
  m_ObjectHideFlags: 0
  serializedVersion: 2
  m_Modification:
    m_TransformParent: {fileID: 332136631}
    m_Modifications:
    - target: {fileID: 4400320672122904, guid: 97291d2df068db2439009ca97285ddff, type: 3}
      propertyPath: m_LocalPosition.x
      value: 9.330762
      objectReference: {fileID: 0}
    - target: {fileID: 4400320672122904, guid: 97291d2df068db2439009ca97285ddff, type: 3}
      propertyPath: m_LocalPosition.y
      value: 0
      objectReference: {fileID: 0}
    - target: {fileID: 4400320672122904, guid: 97291d2df068db2439009ca97285ddff, type: 3}
      propertyPath: m_LocalPosition.z
      value: -1.7983847
      objectReference: {fileID: 0}
    - target: {fileID: 4400320672122904, guid: 97291d2df068db2439009ca97285ddff, type: 3}
      propertyPath: m_LocalRotation.x
      value: 0.000000021855694
      objectReference: {fileID: 0}
    - target: {fileID: 4400320672122904, guid: 97291d2df068db2439009ca97285ddff, type: 3}
      propertyPath: m_LocalRotation.y
      value: 0
      objectReference: {fileID: 0}
    - target: {fileID: 4400320672122904, guid: 97291d2df068db2439009ca97285ddff, type: 3}
      propertyPath: m_LocalRotation.z
      value: -0
      objectReference: {fileID: 0}
    - target: {fileID: 4400320672122904, guid: 97291d2df068db2439009ca97285ddff, type: 3}
      propertyPath: m_LocalRotation.w
      value: 1
      objectReference: {fileID: 0}
    - target: {fileID: 4400320672122904, guid: 97291d2df068db2439009ca97285ddff, type: 3}
      propertyPath: m_RootOrder
      value: 17
      objectReference: {fileID: 0}
    m_RemovedComponents: []
  m_SourcePrefab: {fileID: 100100000, guid: 97291d2df068db2439009ca97285ddff, type: 3}
--- !u!4 &198636359 stripped
Transform:
  m_CorrespondingSourceObject: {fileID: 4400320672122904, guid: 97291d2df068db2439009ca97285ddff,
    type: 3}
  m_PrefabInstance: {fileID: 198636358}
  m_PrefabAsset: {fileID: 0}
--- !u!1 &208650749
GameObject:
  m_ObjectHideFlags: 0
  m_CorrespondingSourceObject: {fileID: 0}
  m_PrefabInstance: {fileID: 0}
  m_PrefabAsset: {fileID: 0}
  serializedVersion: 6
  m_Component:
  - component: {fileID: 208650754}
  - component: {fileID: 208650753}
  - component: {fileID: 208650751}
  - component: {fileID: 208650750}
  m_Layer: 0
  m_Name: Main Camera
  m_TagString: MainCamera
  m_Icon: {fileID: 0}
  m_NavMeshLayer: 0
  m_StaticEditorFlags: 0
  m_IsActive: 1
--- !u!81 &208650750
AudioListener:
  m_ObjectHideFlags: 0
  m_CorrespondingSourceObject: {fileID: 0}
  m_PrefabInstance: {fileID: 0}
  m_PrefabAsset: {fileID: 0}
  m_GameObject: {fileID: 208650749}
  m_Enabled: 1
--- !u!124 &208650751
Behaviour:
  m_ObjectHideFlags: 0
  m_CorrespondingSourceObject: {fileID: 0}
  m_PrefabInstance: {fileID: 0}
  m_PrefabAsset: {fileID: 0}
  m_GameObject: {fileID: 208650749}
  m_Enabled: 1
--- !u!20 &208650753
Camera:
  m_ObjectHideFlags: 0
  m_CorrespondingSourceObject: {fileID: 0}
  m_PrefabInstance: {fileID: 0}
  m_PrefabAsset: {fileID: 0}
  m_GameObject: {fileID: 208650749}
  m_Enabled: 1
  serializedVersion: 2
  m_ClearFlags: 1
  m_BackGroundColor: {r: 0.19215687, g: 0.3019608, b: 0.4745098, a: 0}
  m_projectionMatrixMode: 1
  m_GateFitMode: 2
  m_FOVAxisMode: 0
  m_SensorSize: {x: 36, y: 24}
  m_LensShift: {x: 0, y: 0}
  m_FocalLength: 50
  m_NormalizedViewPortRect:
    serializedVersion: 2
    x: 0
    y: 0
    width: 1
    height: 1
  near clip plane: 0.3
  far clip plane: 1000
  field of view: 60
  orthographic: 0
  orthographic size: 5
  m_Depth: -1
  m_CullingMask:
    serializedVersion: 2
    m_Bits: 4294967295
  m_RenderingPath: -1
  m_TargetTexture: {fileID: 0}
  m_TargetDisplay: 0
  m_TargetEye: 3
  m_HDR: 1
  m_AllowMSAA: 1
  m_AllowDynamicResolution: 0
  m_ForceIntoRT: 0
  m_OcclusionCulling: 1
  m_StereoConvergence: 10
  m_StereoSeparation: 0.022
--- !u!4 &208650754
Transform:
  m_ObjectHideFlags: 0
  m_CorrespondingSourceObject: {fileID: 0}
  m_PrefabInstance: {fileID: 0}
  m_PrefabAsset: {fileID: 0}
  m_GameObject: {fileID: 208650749}
  m_LocalRotation: {x: 0, y: 0, z: 0, w: 1}
  m_LocalPosition: {x: 0, y: 1, z: -10}
  m_LocalScale: {x: 1, y: 1, z: 1}
  m_Children: []
  m_Father: {fileID: 0}
  m_RootOrder: 0
  m_LocalEulerAnglesHint: {x: 0, y: 0, z: 0}
--- !u!1001 &238922668
PrefabInstance:
  m_ObjectHideFlags: 0
  serializedVersion: 2
  m_Modification:
    m_TransformParent: {fileID: 332136631}
    m_Modifications:
    - target: {fileID: 4958979517804092, guid: 74bece5c87deaa946b1d5c129a3123af, type: 3}
      propertyPath: m_LocalPosition.x
      value: 1.5279053
      objectReference: {fileID: 0}
    - target: {fileID: 4958979517804092, guid: 74bece5c87deaa946b1d5c129a3123af, type: 3}
      propertyPath: m_LocalPosition.y
      value: 0
      objectReference: {fileID: 0}
    - target: {fileID: 4958979517804092, guid: 74bece5c87deaa946b1d5c129a3123af, type: 3}
      propertyPath: m_LocalPosition.z
      value: -5.296786
      objectReference: {fileID: 0}
    - target: {fileID: 4958979517804092, guid: 74bece5c87deaa946b1d5c129a3123af, type: 3}
      propertyPath: m_LocalRotation.x
      value: -0.00000003774895
      objectReference: {fileID: 0}
    - target: {fileID: 4958979517804092, guid: 74bece5c87deaa946b1d5c129a3123af, type: 3}
      propertyPath: m_LocalRotation.y
      value: 0.00000008742278
      objectReference: {fileID: 0}
    - target: {fileID: 4958979517804092, guid: 74bece5c87deaa946b1d5c129a3123af, type: 3}
      propertyPath: m_LocalRotation.z
      value: 3.300118e-15
      objectReference: {fileID: 0}
    - target: {fileID: 4958979517804092, guid: 74bece5c87deaa946b1d5c129a3123af, type: 3}
      propertyPath: m_LocalRotation.w
      value: 1
      objectReference: {fileID: 0}
    - target: {fileID: 4958979517804092, guid: 74bece5c87deaa946b1d5c129a3123af, type: 3}
      propertyPath: m_RootOrder
      value: 29
      objectReference: {fileID: 0}
    m_RemovedComponents: []
  m_SourcePrefab: {fileID: 100100000, guid: 74bece5c87deaa946b1d5c129a3123af, type: 3}
--- !u!4 &238922669 stripped
Transform:
  m_CorrespondingSourceObject: {fileID: 4958979517804092, guid: 74bece5c87deaa946b1d5c129a3123af,
    type: 3}
  m_PrefabInstance: {fileID: 238922668}
  m_PrefabAsset: {fileID: 0}
--- !u!1001 &244362325
PrefabInstance:
  m_ObjectHideFlags: 0
  serializedVersion: 2
  m_Modification:
    m_TransformParent: {fileID: 332136631}
    m_Modifications:
    - target: {fileID: 4308585678317736, guid: e992049e0e5f23b48ade8c906dc252c6, type: 3}
      propertyPath: m_LocalPosition.x
      value: -2.0326695
      objectReference: {fileID: 0}
    - target: {fileID: 4308585678317736, guid: e992049e0e5f23b48ade8c906dc252c6, type: 3}
      propertyPath: m_LocalPosition.y
      value: 0
      objectReference: {fileID: 0}
    - target: {fileID: 4308585678317736, guid: e992049e0e5f23b48ade8c906dc252c6, type: 3}
      propertyPath: m_LocalPosition.z
      value: -2.7343364
      objectReference: {fileID: 0}
    - target: {fileID: 4308585678317736, guid: e992049e0e5f23b48ade8c906dc252c6, type: 3}
      propertyPath: m_LocalRotation.x
      value: 0.000000021855694
      objectReference: {fileID: 0}
    - target: {fileID: 4308585678317736, guid: e992049e0e5f23b48ade8c906dc252c6, type: 3}
      propertyPath: m_LocalRotation.y
      value: 0
      objectReference: {fileID: 0}
    - target: {fileID: 4308585678317736, guid: e992049e0e5f23b48ade8c906dc252c6, type: 3}
      propertyPath: m_LocalRotation.z
      value: -0
      objectReference: {fileID: 0}
    - target: {fileID: 4308585678317736, guid: e992049e0e5f23b48ade8c906dc252c6, type: 3}
      propertyPath: m_LocalRotation.w
      value: 1
      objectReference: {fileID: 0}
    - target: {fileID: 4308585678317736, guid: e992049e0e5f23b48ade8c906dc252c6, type: 3}
      propertyPath: m_RootOrder
      value: 36
      objectReference: {fileID: 0}
    m_RemovedComponents: []
  m_SourcePrefab: {fileID: 100100000, guid: e992049e0e5f23b48ade8c906dc252c6, type: 3}
--- !u!4 &244362326 stripped
Transform:
  m_CorrespondingSourceObject: {fileID: 4308585678317736, guid: e992049e0e5f23b48ade8c906dc252c6,
    type: 3}
  m_PrefabInstance: {fileID: 244362325}
  m_PrefabAsset: {fileID: 0}
--- !u!1 &271613920
GameObject:
  m_ObjectHideFlags: 0
  m_CorrespondingSourceObject: {fileID: 0}
  m_PrefabInstance: {fileID: 0}
  m_PrefabAsset: {fileID: 0}
  serializedVersion: 6
  m_Component:
  - component: {fileID: 271613922}
  - component: {fileID: 271613921}
  m_Layer: 0
  m_Name: Directional Light
  m_TagString: Untagged
  m_Icon: {fileID: 0}
  m_NavMeshLayer: 0
  m_StaticEditorFlags: 0
  m_IsActive: 1
--- !u!108 &271613921
Light:
  m_ObjectHideFlags: 0
  m_CorrespondingSourceObject: {fileID: 0}
  m_PrefabInstance: {fileID: 0}
  m_PrefabAsset: {fileID: 0}
  m_GameObject: {fileID: 271613920}
  m_Enabled: 1
  serializedVersion: 10
  m_Type: 1
  m_Shape: 0
  m_Color: {r: 1, g: 0.95686275, b: 0.8392157, a: 1}
  m_Intensity: 1
  m_Range: 10
  m_SpotAngle: 30
  m_InnerSpotAngle: 21.802082
  m_CookieSize: 10
  m_Shadows:
    m_Type: 2
    m_Resolution: -1
    m_CustomResolution: -1
    m_Strength: 1
    m_Bias: 0.05
    m_NormalBias: 0.4
    m_NearPlane: 0.2
    m_CullingMatrixOverride:
      e00: 1
      e01: 0
      e02: 0
      e03: 0
      e10: 0
      e11: 1
      e12: 0
      e13: 0
      e20: 0
      e21: 0
      e22: 1
      e23: 0
      e30: 0
      e31: 0
      e32: 0
      e33: 1
    m_UseCullingMatrixOverride: 0
  m_Cookie: {fileID: 0}
  m_DrawHalo: 0
  m_Flare: {fileID: 0}
  m_RenderMode: 0
  m_CullingMask:
    serializedVersion: 2
    m_Bits: 4294967295
  m_RenderingLayerMask: 1
  m_Lightmapping: 4
  m_LightShadowCasterMode: 0
  m_AreaSize: {x: 1, y: 1}
  m_BounceIntensity: 1
  m_ColorTemperature: 6570
  m_UseColorTemperature: 0
  m_BoundingSphereOverride: {x: 0, y: 0, z: 0, w: 0}
  m_UseBoundingSphereOverride: 0
  m_ShadowRadius: 0
  m_ShadowAngle: 0
--- !u!4 &271613922
Transform:
  m_ObjectHideFlags: 0
  m_CorrespondingSourceObject: {fileID: 0}
  m_PrefabInstance: {fileID: 0}
  m_PrefabAsset: {fileID: 0}
  m_GameObject: {fileID: 271613920}
  m_LocalRotation: {x: 0.9132437, y: -0.17905834, z: 0.2385605, w: 0.27751195}
  m_LocalPosition: {x: 1.82, y: 7.35, z: -3.16}
  m_LocalScale: {x: 1, y: 1, z: 1}
  m_Children: []
  m_Father: {fileID: 0}
  m_RootOrder: 2
  m_LocalEulerAnglesHint: {x: 36.321003, y: 155.326, z: 193.98}
--- !u!1 &332136630
GameObject:
  m_ObjectHideFlags: 0
  m_CorrespondingSourceObject: {fileID: 100078, guid: 5f3a7deba91ee3341b2266db1be8c0a0,
    type: 3}
  m_PrefabInstance: {fileID: 0}
  m_PrefabAsset: {fileID: 0}
  serializedVersion: 6
  m_Component:
  - component: {fileID: 332136631}
  m_Layer: 0
  m_Name: Stones_and_buried_treasure
  m_TagString: Untagged
  m_Icon: {fileID: 0}
  m_NavMeshLayer: 0
  m_StaticEditorFlags: 0
  m_IsActive: 1
--- !u!4 &332136631
Transform:
  m_ObjectHideFlags: 0
  m_CorrespondingSourceObject: {fileID: 400078, guid: 5f3a7deba91ee3341b2266db1be8c0a0,
    type: 3}
  m_PrefabInstance: {fileID: 0}
  m_PrefabAsset: {fileID: 0}
  m_GameObject: {fileID: 332136630}
  m_LocalRotation: {x: 0, y: 0, z: 0, w: 1}
  m_LocalPosition: {x: 0, y: 0, z: 0}
  m_LocalScale: {x: 1, y: 1, z: 1}
  m_Children:
  - {fileID: 4219440}
  - {fileID: 523496202}
  - {fileID: 2019541254}
  - {fileID: 2045681763}
  - {fileID: 1155045575}
  - {fileID: 339637946}
  - {fileID: 46169605}
  - {fileID: 97979285}
  - {fileID: 1852295715}
  - {fileID: 426615682}
  - {fileID: 461570665}
  - {fileID: 523067010}
  - {fileID: 576239628}
  - {fileID: 868396532}
  - {fileID: 489585632}
  - {fileID: 1018227261}
  - {fileID: 198636359}
  - {fileID: 1059274739}
  - {fileID: 80889733}
  - {fileID: 1203437546}
  - {fileID: 564881235}
  - {fileID: 1210347518}
  - {fileID: 970690719}
  - {fileID: 1530069778}
  - {fileID: 619201510}
  - {fileID: 1198252144}
  - {fileID: 752474732}
  - {fileID: 2120235162}
  - {fileID: 1282821931}
  - {fileID: 238922669}
  - {fileID: 984231546}
  - {fileID: 81446457}
  - {fileID: 1318573902}
  - {fileID: 1173236130}
  - {fileID: 1954109165}
  - {fileID: 410668969}
  - {fileID: 244362326}
  - {fileID: 1113489174}
  - {fileID: 2017629615}
  - {fileID: 1421726561}
  - {fileID: 718068163}
  - {fileID: 1590236850}
  - {fileID: 1634232545}
  - {fileID: 1860043132}
  - {fileID: 1890375830}
  - {fileID: 1937677776}
  m_Father: {fileID: 0}
  m_RootOrder: 1
  m_LocalEulerAnglesHint: {x: 0, y: 0, z: 0}
--- !u!1001 &339637945
PrefabInstance:
  m_ObjectHideFlags: 0
  serializedVersion: 2
  m_Modification:
    m_TransformParent: {fileID: 332136631}
    m_Modifications:
    - target: {fileID: 4476535904707432, guid: 71af532755e61c7439f07e35d89278f8, type: 2}
      propertyPath: m_LocalPosition.x
      value: -2.615689
      objectReference: {fileID: 0}
    - target: {fileID: 4476535904707432, guid: 71af532755e61c7439f07e35d89278f8, type: 2}
      propertyPath: m_LocalPosition.y
      value: 0.11292438
      objectReference: {fileID: 0}
    - target: {fileID: 4476535904707432, guid: 71af532755e61c7439f07e35d89278f8, type: 2}
      propertyPath: m_LocalPosition.z
      value: 4.633475
      objectReference: {fileID: 0}
    - target: {fileID: 4476535904707432, guid: 71af532755e61c7439f07e35d89278f8, type: 2}
      propertyPath: m_LocalRotation.x
      value: 0.000000021855694
      objectReference: {fileID: 0}
    - target: {fileID: 4476535904707432, guid: 71af532755e61c7439f07e35d89278f8, type: 2}
      propertyPath: m_LocalRotation.y
      value: 0
      objectReference: {fileID: 0}
    - target: {fileID: 4476535904707432, guid: 71af532755e61c7439f07e35d89278f8, type: 2}
      propertyPath: m_LocalRotation.z
      value: -0
      objectReference: {fileID: 0}
    - target: {fileID: 4476535904707432, guid: 71af532755e61c7439f07e35d89278f8, type: 2}
      propertyPath: m_LocalRotation.w
      value: 1
      objectReference: {fileID: 0}
    - target: {fileID: 4476535904707432, guid: 71af532755e61c7439f07e35d89278f8, type: 2}
      propertyPath: m_RootOrder
      value: 5
      objectReference: {fileID: 0}
    m_RemovedComponents: []
  m_SourcePrefab: {fileID: 100100000, guid: 71af532755e61c7439f07e35d89278f8, type: 2}
--- !u!4 &339637946 stripped
Transform:
  m_CorrespondingSourceObject: {fileID: 0}
  m_PrefabInstance: {fileID: 339637945}
  m_PrefabAsset: {fileID: 0}
--- !u!1001 &410668968
PrefabInstance:
  m_ObjectHideFlags: 0
  serializedVersion: 2
  m_Modification:
    m_TransformParent: {fileID: 332136631}
    m_Modifications:
    - target: {fileID: 4286474034110522, guid: 7e9e129d389d7b840aff77f25f41451c, type: 3}
      propertyPath: m_LocalPosition.x
      value: -0.1739006
      objectReference: {fileID: 0}
    - target: {fileID: 4286474034110522, guid: 7e9e129d389d7b840aff77f25f41451c, type: 3}
      propertyPath: m_LocalPosition.y
      value: 0
      objectReference: {fileID: 0}
    - target: {fileID: 4286474034110522, guid: 7e9e129d389d7b840aff77f25f41451c, type: 3}
      propertyPath: m_LocalPosition.z
      value: -2.6809516
      objectReference: {fileID: 0}
    - target: {fileID: 4286474034110522, guid: 7e9e129d389d7b840aff77f25f41451c, type: 3}
      propertyPath: m_LocalRotation.x
      value: 0.000000021855694
      objectReference: {fileID: 0}
    - target: {fileID: 4286474034110522, guid: 7e9e129d389d7b840aff77f25f41451c, type: 3}
      propertyPath: m_LocalRotation.y
      value: 0
      objectReference: {fileID: 0}
    - target: {fileID: 4286474034110522, guid: 7e9e129d389d7b840aff77f25f41451c, type: 3}
      propertyPath: m_LocalRotation.z
      value: -0
      objectReference: {fileID: 0}
    - target: {fileID: 4286474034110522, guid: 7e9e129d389d7b840aff77f25f41451c, type: 3}
      propertyPath: m_LocalRotation.w
      value: 1
      objectReference: {fileID: 0}
    - target: {fileID: 4286474034110522, guid: 7e9e129d389d7b840aff77f25f41451c, type: 3}
      propertyPath: m_RootOrder
      value: 35
      objectReference: {fileID: 0}
    m_RemovedComponents: []
  m_SourcePrefab: {fileID: 100100000, guid: 7e9e129d389d7b840aff77f25f41451c, type: 3}
--- !u!4 &410668969 stripped
Transform:
  m_CorrespondingSourceObject: {fileID: 4286474034110522, guid: 7e9e129d389d7b840aff77f25f41451c,
    type: 3}
  m_PrefabInstance: {fileID: 410668968}
  m_PrefabAsset: {fileID: 0}
--- !u!1001 &426615681
PrefabInstance:
  m_ObjectHideFlags: 0
  serializedVersion: 2
  m_Modification:
    m_TransformParent: {fileID: 332136631}
    m_Modifications:
    - target: {fileID: 4921418571120272, guid: 54c295819cbc940479f443cf807656ea, type: 2}
      propertyPath: m_LocalPosition.x
      value: -4.33239
      objectReference: {fileID: 0}
    - target: {fileID: 4921418571120272, guid: 54c295819cbc940479f443cf807656ea, type: 2}
      propertyPath: m_LocalPosition.y
      value: 0.15695474
      objectReference: {fileID: 0}
    - target: {fileID: 4921418571120272, guid: 54c295819cbc940479f443cf807656ea, type: 2}
      propertyPath: m_LocalPosition.z
      value: 4.476961
      objectReference: {fileID: 0}
    - target: {fileID: 4921418571120272, guid: 54c295819cbc940479f443cf807656ea, type: 2}
      propertyPath: m_LocalRotation.x
      value: 0.000000021855694
      objectReference: {fileID: 0}
    - target: {fileID: 4921418571120272, guid: 54c295819cbc940479f443cf807656ea, type: 2}
      propertyPath: m_LocalRotation.y
      value: 0
      objectReference: {fileID: 0}
    - target: {fileID: 4921418571120272, guid: 54c295819cbc940479f443cf807656ea, type: 2}
      propertyPath: m_LocalRotation.z
      value: -0
      objectReference: {fileID: 0}
    - target: {fileID: 4921418571120272, guid: 54c295819cbc940479f443cf807656ea, type: 2}
      propertyPath: m_LocalRotation.w
      value: 1
      objectReference: {fileID: 0}
    - target: {fileID: 4921418571120272, guid: 54c295819cbc940479f443cf807656ea, type: 2}
      propertyPath: m_RootOrder
      value: 43
      objectReference: {fileID: 0}
    m_RemovedComponents: []
  m_SourcePrefab: {fileID: 100100000, guid: 54c295819cbc940479f443cf807656ea, type: 2}
--- !u!4 &426615682 stripped
Transform:
  m_CorrespondingSourceObject: {fileID: 0}
  m_PrefabInstance: {fileID: 426615681}
  m_PrefabAsset: {fileID: 0}
--- !u!1001 &461570664
PrefabInstance:
  m_ObjectHideFlags: 0
  serializedVersion: 2
  m_Modification:
    m_TransformParent: {fileID: 332136631}
    m_Modifications:
    - target: {fileID: 4759725950611988, guid: 20df3b3bdddb94f47b7d2e59e491ff51, type: 2}
      propertyPath: m_LocalPosition.x
      value: -3.5699956
      objectReference: {fileID: 0}
    - target: {fileID: 4759725950611988, guid: 20df3b3bdddb94f47b7d2e59e491ff51, type: 2}
      propertyPath: m_LocalPosition.y
      value: 0.08441698
      objectReference: {fileID: 0}
    - target: {fileID: 4759725950611988, guid: 20df3b3bdddb94f47b7d2e59e491ff51, type: 2}
      propertyPath: m_LocalPosition.z
      value: 6.342075
      objectReference: {fileID: 0}
    - target: {fileID: 4759725950611988, guid: 20df3b3bdddb94f47b7d2e59e491ff51, type: 2}
      propertyPath: m_LocalRotation.x
      value: 0.000000021855694
      objectReference: {fileID: 0}
    - target: {fileID: 4759725950611988, guid: 20df3b3bdddb94f47b7d2e59e491ff51, type: 2}
      propertyPath: m_LocalRotation.y
      value: 0
      objectReference: {fileID: 0}
    - target: {fileID: 4759725950611988, guid: 20df3b3bdddb94f47b7d2e59e491ff51, type: 2}
      propertyPath: m_LocalRotation.z
      value: -0
      objectReference: {fileID: 0}
    - target: {fileID: 4759725950611988, guid: 20df3b3bdddb94f47b7d2e59e491ff51, type: 2}
      propertyPath: m_LocalRotation.w
      value: 1
      objectReference: {fileID: 0}
    - target: {fileID: 4759725950611988, guid: 20df3b3bdddb94f47b7d2e59e491ff51, type: 2}
      propertyPath: m_RootOrder
      value: 18
      objectReference: {fileID: 0}
    m_RemovedComponents: []
  m_SourcePrefab: {fileID: 100100000, guid: 20df3b3bdddb94f47b7d2e59e491ff51, type: 2}
--- !u!4 &461570665 stripped
Transform:
  m_CorrespondingSourceObject: {fileID: 0}
  m_PrefabInstance: {fileID: 461570664}
  m_PrefabAsset: {fileID: 0}
--- !u!1001 &489585631
PrefabInstance:
  m_ObjectHideFlags: 0
  serializedVersion: 2
  m_Modification:
    m_TransformParent: {fileID: 332136631}
    m_Modifications:
    - target: {fileID: 4463400019329302, guid: 83561575068bf2042a4f289885d89d2f, type: 3}
      propertyPath: m_LocalPosition.x
      value: 9.540405
      objectReference: {fileID: 0}
    - target: {fileID: 4463400019329302, guid: 83561575068bf2042a4f289885d89d2f, type: 3}
      propertyPath: m_LocalPosition.y
      value: 0
      objectReference: {fileID: 0}
    - target: {fileID: 4463400019329302, guid: 83561575068bf2042a4f289885d89d2f, type: 3}
      propertyPath: m_LocalPosition.z
      value: -7.3584113
      objectReference: {fileID: 0}
    - target: {fileID: 4463400019329302, guid: 83561575068bf2042a4f289885d89d2f, type: 3}
      propertyPath: m_LocalRotation.x
      value: 0.000000021855694
      objectReference: {fileID: 0}
    - target: {fileID: 4463400019329302, guid: 83561575068bf2042a4f289885d89d2f, type: 3}
      propertyPath: m_LocalRotation.y
      value: 0
      objectReference: {fileID: 0}
    - target: {fileID: 4463400019329302, guid: 83561575068bf2042a4f289885d89d2f, type: 3}
      propertyPath: m_LocalRotation.z
      value: -0
      objectReference: {fileID: 0}
    - target: {fileID: 4463400019329302, guid: 83561575068bf2042a4f289885d89d2f, type: 3}
      propertyPath: m_LocalRotation.w
      value: 1
      objectReference: {fileID: 0}
    - target: {fileID: 4463400019329302, guid: 83561575068bf2042a4f289885d89d2f, type: 3}
      propertyPath: m_RootOrder
      value: 16
      objectReference: {fileID: 0}
    m_RemovedComponents: []
  m_SourcePrefab: {fileID: 100100000, guid: 83561575068bf2042a4f289885d89d2f, type: 3}
--- !u!4 &489585632 stripped
Transform:
  m_CorrespondingSourceObject: {fileID: 4463400019329302, guid: 83561575068bf2042a4f289885d89d2f,
    type: 3}
  m_PrefabInstance: {fileID: 489585631}
  m_PrefabAsset: {fileID: 0}
--- !u!1001 &523067009
PrefabInstance:
  m_ObjectHideFlags: 0
  serializedVersion: 2
  m_Modification:
    m_TransformParent: {fileID: 332136631}
    m_Modifications:
    - target: {fileID: 4269257063507960, guid: edf92e08fbab517449067fd9cddc8a66, type: 2}
      propertyPath: m_LocalPosition.x
      value: 3.9833899
      objectReference: {fileID: 0}
    - target: {fileID: 4269257063507960, guid: edf92e08fbab517449067fd9cddc8a66, type: 2}
      propertyPath: m_LocalPosition.y
      value: 0.12953943
      objectReference: {fileID: 0}
    - target: {fileID: 4269257063507960, guid: edf92e08fbab517449067fd9cddc8a66, type: 2}
      propertyPath: m_LocalPosition.z
      value: 0.9049651
      objectReference: {fileID: 0}
    - target: {fileID: 4269257063507960, guid: edf92e08fbab517449067fd9cddc8a66, type: 2}
      propertyPath: m_LocalRotation.x
      value: 0.000000021855694
      objectReference: {fileID: 0}
    - target: {fileID: 4269257063507960, guid: edf92e08fbab517449067fd9cddc8a66, type: 2}
      propertyPath: m_LocalRotation.y
      value: 0
      objectReference: {fileID: 0}
    - target: {fileID: 4269257063507960, guid: edf92e08fbab517449067fd9cddc8a66, type: 2}
      propertyPath: m_LocalRotation.z
      value: -0
      objectReference: {fileID: 0}
    - target: {fileID: 4269257063507960, guid: edf92e08fbab517449067fd9cddc8a66, type: 2}
      propertyPath: m_LocalRotation.w
      value: 1
      objectReference: {fileID: 0}
    - target: {fileID: 4269257063507960, guid: edf92e08fbab517449067fd9cddc8a66, type: 2}
      propertyPath: m_RootOrder
      value: 0
      objectReference: {fileID: 0}
    m_RemovedComponents: []
  m_SourcePrefab: {fileID: 100100000, guid: edf92e08fbab517449067fd9cddc8a66, type: 2}
--- !u!4 &523067010 stripped
Transform:
  m_CorrespondingSourceObject: {fileID: 0}
  m_PrefabInstance: {fileID: 523067009}
  m_PrefabAsset: {fileID: 0}
--- !u!1001 &523496201
PrefabInstance:
  m_ObjectHideFlags: 0
  serializedVersion: 2
  m_Modification:
    m_TransformParent: {fileID: 332136631}
    m_Modifications:
    - target: {fileID: 4265579823906616, guid: 4d272402a09cecd42a5f9f5d73589fc7, type: 3}
      propertyPath: m_LocalPosition.x
      value: -6.4146466
      objectReference: {fileID: 0}
    - target: {fileID: 4265579823906616, guid: 4d272402a09cecd42a5f9f5d73589fc7, type: 3}
      propertyPath: m_LocalPosition.y
      value: 1.1666602
      objectReference: {fileID: 0}
    - target: {fileID: 4265579823906616, guid: 4d272402a09cecd42a5f9f5d73589fc7, type: 3}
      propertyPath: m_LocalPosition.z
      value: 0.3857682
      objectReference: {fileID: 0}
    - target: {fileID: 4265579823906616, guid: 4d272402a09cecd42a5f9f5d73589fc7, type: 3}
      propertyPath: m_LocalRotation.x
      value: 0.000000021855694
      objectReference: {fileID: 0}
    - target: {fileID: 4265579823906616, guid: 4d272402a09cecd42a5f9f5d73589fc7, type: 3}
      propertyPath: m_LocalRotation.y
      value: 0
      objectReference: {fileID: 0}
    - target: {fileID: 4265579823906616, guid: 4d272402a09cecd42a5f9f5d73589fc7, type: 3}
      propertyPath: m_LocalRotation.z
      value: -0
      objectReference: {fileID: 0}
    - target: {fileID: 4265579823906616, guid: 4d272402a09cecd42a5f9f5d73589fc7, type: 3}
      propertyPath: m_LocalRotation.w
      value: 1
      objectReference: {fileID: 0}
    - target: {fileID: 4265579823906616, guid: 4d272402a09cecd42a5f9f5d73589fc7, type: 3}
      propertyPath: m_RootOrder
      value: 1
      objectReference: {fileID: 0}
    m_RemovedComponents: []
  m_SourcePrefab: {fileID: 100100000, guid: 4d272402a09cecd42a5f9f5d73589fc7, type: 3}
--- !u!4 &523496202 stripped
Transform:
  m_CorrespondingSourceObject: {fileID: 4265579823906616, guid: 4d272402a09cecd42a5f9f5d73589fc7,
    type: 3}
  m_PrefabInstance: {fileID: 523496201}
  m_PrefabAsset: {fileID: 0}
--- !u!1001 &564881234
PrefabInstance:
  m_ObjectHideFlags: 0
  serializedVersion: 2
  m_Modification:
    m_TransformParent: {fileID: 332136631}
    m_Modifications:
    - target: {fileID: 4253259937740656, guid: 6e1def531c4baaf4387bc4283f7ef134, type: 3}
      propertyPath: m_LocalPosition.x
      value: -0.6632099
      objectReference: {fileID: 0}
    - target: {fileID: 4253259937740656, guid: 6e1def531c4baaf4387bc4283f7ef134, type: 3}
      propertyPath: m_LocalPosition.y
      value: 0
      objectReference: {fileID: 0}
    - target: {fileID: 4253259937740656, guid: 6e1def531c4baaf4387bc4283f7ef134, type: 3}
      propertyPath: m_LocalPosition.z
      value: -11.242017
      objectReference: {fileID: 0}
    - target: {fileID: 4253259937740656, guid: 6e1def531c4baaf4387bc4283f7ef134, type: 3}
      propertyPath: m_LocalRotation.x
      value: -0.00000003774895
      objectReference: {fileID: 0}
    - target: {fileID: 4253259937740656, guid: 6e1def531c4baaf4387bc4283f7ef134, type: 3}
      propertyPath: m_LocalRotation.y
      value: 0.00000008742278
      objectReference: {fileID: 0}
    - target: {fileID: 4253259937740656, guid: 6e1def531c4baaf4387bc4283f7ef134, type: 3}
      propertyPath: m_LocalRotation.z
      value: 3.300118e-15
      objectReference: {fileID: 0}
    - target: {fileID: 4253259937740656, guid: 6e1def531c4baaf4387bc4283f7ef134, type: 3}
      propertyPath: m_LocalRotation.w
      value: 1
      objectReference: {fileID: 0}
    - target: {fileID: 4253259937740656, guid: 6e1def531c4baaf4387bc4283f7ef134, type: 3}
      propertyPath: m_RootOrder
      value: 22
      objectReference: {fileID: 0}
    m_RemovedComponents: []
  m_SourcePrefab: {fileID: 100100000, guid: 6e1def531c4baaf4387bc4283f7ef134, type: 3}
--- !u!4 &564881235 stripped
Transform:
  m_CorrespondingSourceObject: {fileID: 4253259937740656, guid: 6e1def531c4baaf4387bc4283f7ef134,
    type: 3}
  m_PrefabInstance: {fileID: 564881234}
  m_PrefabAsset: {fileID: 0}
--- !u!1001 &576239627
PrefabInstance:
  m_ObjectHideFlags: 0
  serializedVersion: 2
  m_Modification:
    m_TransformParent: {fileID: 332136631}
    m_Modifications:
    - target: {fileID: 4189399511736688, guid: e6911a57b4d95ba4f86e3e41e5a9fcac, type: 2}
      propertyPath: m_LocalPosition.x
      value: -3.5873644
      objectReference: {fileID: 0}
    - target: {fileID: 4189399511736688, guid: e6911a57b4d95ba4f86e3e41e5a9fcac, type: 2}
      propertyPath: m_LocalPosition.y
      value: 0.5580756
      objectReference: {fileID: 0}
    - target: {fileID: 4189399511736688, guid: e6911a57b4d95ba4f86e3e41e5a9fcac, type: 2}
      propertyPath: m_LocalPosition.z
      value: 4.533931
      objectReference: {fileID: 0}
    - target: {fileID: 4189399511736688, guid: e6911a57b4d95ba4f86e3e41e5a9fcac, type: 2}
      propertyPath: m_LocalRotation.x
      value: 0.000000021855694
      objectReference: {fileID: 0}
    - target: {fileID: 4189399511736688, guid: e6911a57b4d95ba4f86e3e41e5a9fcac, type: 2}
      propertyPath: m_LocalRotation.y
      value: 0
      objectReference: {fileID: 0}
    - target: {fileID: 4189399511736688, guid: e6911a57b4d95ba4f86e3e41e5a9fcac, type: 2}
      propertyPath: m_LocalRotation.z
      value: -0
      objectReference: {fileID: 0}
    - target: {fileID: 4189399511736688, guid: e6911a57b4d95ba4f86e3e41e5a9fcac, type: 2}
      propertyPath: m_LocalRotation.w
      value: 1
      objectReference: {fileID: 0}
    - target: {fileID: 4189399511736688, guid: e6911a57b4d95ba4f86e3e41e5a9fcac, type: 2}
      propertyPath: m_RootOrder
      value: 45
      objectReference: {fileID: 0}
    m_RemovedComponents: []
  m_SourcePrefab: {fileID: 100100000, guid: e6911a57b4d95ba4f86e3e41e5a9fcac, type: 2}
--- !u!4 &576239628 stripped
Transform:
  m_CorrespondingSourceObject: {fileID: 0}
  m_PrefabInstance: {fileID: 576239627}
  m_PrefabAsset: {fileID: 0}
--- !u!1001 &619201509
PrefabInstance:
  m_ObjectHideFlags: 0
  serializedVersion: 2
  m_Modification:
    m_TransformParent: {fileID: 332136631}
    m_Modifications:
    - target: {fileID: 4579031872155782, guid: e06ba814345b0ec43aaaf6a5dac7e762, type: 3}
      propertyPath: m_LocalPosition.x
      value: 1.4012222
      objectReference: {fileID: 0}
    - target: {fileID: 4579031872155782, guid: e06ba814345b0ec43aaaf6a5dac7e762, type: 3}
      propertyPath: m_LocalPosition.y
      value: 0
      objectReference: {fileID: 0}
    - target: {fileID: 4579031872155782, guid: e06ba814345b0ec43aaaf6a5dac7e762, type: 3}
      propertyPath: m_LocalPosition.z
      value: -8.006685
      objectReference: {fileID: 0}
    - target: {fileID: 4579031872155782, guid: e06ba814345b0ec43aaaf6a5dac7e762, type: 3}
      propertyPath: m_LocalRotation.x
      value: 0.000000021855694
      objectReference: {fileID: 0}
    - target: {fileID: 4579031872155782, guid: e06ba814345b0ec43aaaf6a5dac7e762, type: 3}
      propertyPath: m_LocalRotation.y
      value: 0
      objectReference: {fileID: 0}
    - target: {fileID: 4579031872155782, guid: e06ba814345b0ec43aaaf6a5dac7e762, type: 3}
      propertyPath: m_LocalRotation.z
      value: -0
      objectReference: {fileID: 0}
    - target: {fileID: 4579031872155782, guid: e06ba814345b0ec43aaaf6a5dac7e762, type: 3}
      propertyPath: m_LocalRotation.w
      value: 1
      objectReference: {fileID: 0}
    - target: {fileID: 4579031872155782, guid: e06ba814345b0ec43aaaf6a5dac7e762, type: 3}
      propertyPath: m_RootOrder
      value: 25
      objectReference: {fileID: 0}
    m_RemovedComponents: []
  m_SourcePrefab: {fileID: 100100000, guid: e06ba814345b0ec43aaaf6a5dac7e762, type: 3}
--- !u!4 &619201510 stripped
Transform:
  m_CorrespondingSourceObject: {fileID: 4579031872155782, guid: e06ba814345b0ec43aaaf6a5dac7e762,
    type: 3}
  m_PrefabInstance: {fileID: 619201509}
  m_PrefabAsset: {fileID: 0}
--- !u!1001 &718068162
PrefabInstance:
  m_ObjectHideFlags: 0
  serializedVersion: 2
  m_Modification:
    m_TransformParent: {fileID: 332136631}
    m_Modifications:
    - target: {fileID: 4650163531288534, guid: d64bcd605f1bc084588c5a35592f7fc3, type: 3}
      propertyPath: m_LocalPosition.x
      value: 9.61894
      objectReference: {fileID: 0}
    - target: {fileID: 4650163531288534, guid: d64bcd605f1bc084588c5a35592f7fc3, type: 3}
      propertyPath: m_LocalPosition.y
      value: 0
      objectReference: {fileID: 0}
    - target: {fileID: 4650163531288534, guid: d64bcd605f1bc084588c5a35592f7fc3, type: 3}
      propertyPath: m_LocalPosition.z
      value: -10.64471
      objectReference: {fileID: 0}
    - target: {fileID: 4650163531288534, guid: d64bcd605f1bc084588c5a35592f7fc3, type: 3}
      propertyPath: m_LocalRotation.x
      value: 0.000000021855694
      objectReference: {fileID: 0}
    - target: {fileID: 4650163531288534, guid: d64bcd605f1bc084588c5a35592f7fc3, type: 3}
      propertyPath: m_LocalRotation.y
      value: 0
      objectReference: {fileID: 0}
    - target: {fileID: 4650163531288534, guid: d64bcd605f1bc084588c5a35592f7fc3, type: 3}
      propertyPath: m_LocalRotation.z
      value: -0
      objectReference: {fileID: 0}
    - target: {fileID: 4650163531288534, guid: d64bcd605f1bc084588c5a35592f7fc3, type: 3}
      propertyPath: m_LocalRotation.w
      value: 1
      objectReference: {fileID: 0}
    - target: {fileID: 4650163531288534, guid: d64bcd605f1bc084588c5a35592f7fc3, type: 3}
      propertyPath: m_RootOrder
      value: 40
      objectReference: {fileID: 0}
    m_RemovedComponents: []
  m_SourcePrefab: {fileID: 100100000, guid: d64bcd605f1bc084588c5a35592f7fc3, type: 3}
--- !u!4 &718068163 stripped
Transform:
  m_CorrespondingSourceObject: {fileID: 4650163531288534, guid: d64bcd605f1bc084588c5a35592f7fc3,
    type: 3}
  m_PrefabInstance: {fileID: 718068162}
  m_PrefabAsset: {fileID: 0}
--- !u!1001 &752474731
PrefabInstance:
  m_ObjectHideFlags: 0
  serializedVersion: 2
  m_Modification:
    m_TransformParent: {fileID: 332136631}
    m_Modifications:
    - target: {fileID: 4819029125772090, guid: 41746623d92e6994586a79f8ebd3681a, type: 3}
      propertyPath: m_LocalPosition.x
      value: -5.5218787
      objectReference: {fileID: 0}
    - target: {fileID: 4819029125772090, guid: 41746623d92e6994586a79f8ebd3681a, type: 3}
      propertyPath: m_LocalPosition.y
      value: 0
      objectReference: {fileID: 0}
    - target: {fileID: 4819029125772090, guid: 41746623d92e6994586a79f8ebd3681a, type: 3}
      propertyPath: m_LocalPosition.z
      value: -7.580584
      objectReference: {fileID: 0}
    - target: {fileID: 4819029125772090, guid: 41746623d92e6994586a79f8ebd3681a, type: 3}
      propertyPath: m_LocalRotation.x
      value: 0.000000021855694
      objectReference: {fileID: 0}
    - target: {fileID: 4819029125772090, guid: 41746623d92e6994586a79f8ebd3681a, type: 3}
      propertyPath: m_LocalRotation.y
      value: 0
      objectReference: {fileID: 0}
    - target: {fileID: 4819029125772090, guid: 41746623d92e6994586a79f8ebd3681a, type: 3}
      propertyPath: m_LocalRotation.z
      value: -0
      objectReference: {fileID: 0}
    - target: {fileID: 4819029125772090, guid: 41746623d92e6994586a79f8ebd3681a, type: 3}
      propertyPath: m_LocalRotation.w
      value: 1
      objectReference: {fileID: 0}
    - target: {fileID: 4819029125772090, guid: 41746623d92e6994586a79f8ebd3681a, type: 3}
      propertyPath: m_RootOrder
      value: 27
      objectReference: {fileID: 0}
    m_RemovedComponents: []
  m_SourcePrefab: {fileID: 100100000, guid: 41746623d92e6994586a79f8ebd3681a, type: 3}
--- !u!4 &752474732 stripped
Transform:
  m_CorrespondingSourceObject: {fileID: 4819029125772090, guid: 41746623d92e6994586a79f8ebd3681a,
    type: 3}
  m_PrefabInstance: {fileID: 752474731}
  m_PrefabAsset: {fileID: 0}
--- !u!1001 &868396531
PrefabInstance:
  m_ObjectHideFlags: 0
  serializedVersion: 2
  m_Modification:
    m_TransformParent: {fileID: 332136631}
    m_Modifications:
    - target: {fileID: 4623209018381364, guid: 2485624f732b618439e23cb8081d41dc, type: 2}
      propertyPath: m_LocalPosition.x
      value: -4.3325934
      objectReference: {fileID: 0}
    - target: {fileID: 4623209018381364, guid: 2485624f732b618439e23cb8081d41dc, type: 2}
      propertyPath: m_LocalPosition.y
      value: 0.22500715
      objectReference: {fileID: 0}
    - target: {fileID: 4623209018381364, guid: 2485624f732b618439e23cb8081d41dc, type: 2}
      propertyPath: m_LocalPosition.z
      value: 5.43609
      objectReference: {fileID: 0}
    - target: {fileID: 4623209018381364, guid: 2485624f732b618439e23cb8081d41dc, type: 2}
      propertyPath: m_LocalRotation.x
      value: 0.000000021855694
      objectReference: {fileID: 0}
    - target: {fileID: 4623209018381364, guid: 2485624f732b618439e23cb8081d41dc, type: 2}
      propertyPath: m_LocalRotation.y
      value: 0
      objectReference: {fileID: 0}
    - target: {fileID: 4623209018381364, guid: 2485624f732b618439e23cb8081d41dc, type: 2}
      propertyPath: m_LocalRotation.z
      value: -0
      objectReference: {fileID: 0}
    - target: {fileID: 4623209018381364, guid: 2485624f732b618439e23cb8081d41dc, type: 2}
      propertyPath: m_LocalRotation.w
      value: 1
      objectReference: {fileID: 0}
    - target: {fileID: 4623209018381364, guid: 2485624f732b618439e23cb8081d41dc, type: 2}
      propertyPath: m_RootOrder
      value: 42
      objectReference: {fileID: 0}
    m_RemovedComponents: []
  m_SourcePrefab: {fileID: 100100000, guid: 2485624f732b618439e23cb8081d41dc, type: 2}
--- !u!4 &868396532 stripped
Transform:
  m_CorrespondingSourceObject: {fileID: 0}
  m_PrefabInstance: {fileID: 868396531}
  m_PrefabAsset: {fileID: 0}
--- !u!1001 &970690718
PrefabInstance:
  m_ObjectHideFlags: 0
  serializedVersion: 2
  m_Modification:
    m_TransformParent: {fileID: 332136631}
    m_Modifications:
    - target: {fileID: 4163550974101312, guid: fca867e93da64f84c8cc00bde5b816f0, type: 3}
      propertyPath: m_LocalPosition.x
      value: -5.1443424
      objectReference: {fileID: 0}
    - target: {fileID: 4163550974101312, guid: fca867e93da64f84c8cc00bde5b816f0, type: 3}
      propertyPath: m_LocalPosition.y
      value: 0
      objectReference: {fileID: 0}
    - target: {fileID: 4163550974101312, guid: fca867e93da64f84c8cc00bde5b816f0, type: 3}
      propertyPath: m_LocalPosition.z
      value: -10.661798
      objectReference: {fileID: 0}
    - target: {fileID: 4163550974101312, guid: fca867e93da64f84c8cc00bde5b816f0, type: 3}
      propertyPath: m_LocalRotation.x
      value: 0.000000021855694
      objectReference: {fileID: 0}
    - target: {fileID: 4163550974101312, guid: fca867e93da64f84c8cc00bde5b816f0, type: 3}
      propertyPath: m_LocalRotation.y
      value: 0
      objectReference: {fileID: 0}
    - target: {fileID: 4163550974101312, guid: fca867e93da64f84c8cc00bde5b816f0, type: 3}
      propertyPath: m_LocalRotation.z
      value: -0
      objectReference: {fileID: 0}
    - target: {fileID: 4163550974101312, guid: fca867e93da64f84c8cc00bde5b816f0, type: 3}
      propertyPath: m_LocalRotation.w
      value: 1
      objectReference: {fileID: 0}
    - target: {fileID: 4163550974101312, guid: fca867e93da64f84c8cc00bde5b816f0, type: 3}
      propertyPath: m_RootOrder
      value: 23
      objectReference: {fileID: 0}
    m_RemovedComponents: []
  m_SourcePrefab: {fileID: 100100000, guid: fca867e93da64f84c8cc00bde5b816f0, type: 3}
--- !u!4 &970690719 stripped
Transform:
  m_CorrespondingSourceObject: {fileID: 4163550974101312, guid: fca867e93da64f84c8cc00bde5b816f0,
    type: 3}
  m_PrefabInstance: {fileID: 970690718}
  m_PrefabAsset: {fileID: 0}
--- !u!1001 &984231545
PrefabInstance:
  m_ObjectHideFlags: 0
  serializedVersion: 2
  m_Modification:
    m_TransformParent: {fileID: 332136631}
    m_Modifications:
    - target: {fileID: 4007913983656706, guid: df00b95dd377f8f4fa6a75377aa47a42, type: 3}
      propertyPath: m_LocalPosition.x
      value: -1.7978461
      objectReference: {fileID: 0}
    - target: {fileID: 4007913983656706, guid: df00b95dd377f8f4fa6a75377aa47a42, type: 3}
      propertyPath: m_LocalPosition.y
      value: 0
      objectReference: {fileID: 0}
    - target: {fileID: 4007913983656706, guid: df00b95dd377f8f4fa6a75377aa47a42, type: 3}
      propertyPath: m_LocalPosition.z
      value: -5.1258097
      objectReference: {fileID: 0}
    - target: {fileID: 4007913983656706, guid: df00b95dd377f8f4fa6a75377aa47a42, type: 3}
      propertyPath: m_LocalRotation.x
      value: -0.00000003774895
      objectReference: {fileID: 0}
    - target: {fileID: 4007913983656706, guid: df00b95dd377f8f4fa6a75377aa47a42, type: 3}
      propertyPath: m_LocalRotation.y
      value: 0.00000008742278
      objectReference: {fileID: 0}
    - target: {fileID: 4007913983656706, guid: df00b95dd377f8f4fa6a75377aa47a42, type: 3}
      propertyPath: m_LocalRotation.z
      value: 3.300118e-15
      objectReference: {fileID: 0}
    - target: {fileID: 4007913983656706, guid: df00b95dd377f8f4fa6a75377aa47a42, type: 3}
      propertyPath: m_LocalRotation.w
      value: 1
      objectReference: {fileID: 0}
    - target: {fileID: 4007913983656706, guid: df00b95dd377f8f4fa6a75377aa47a42, type: 3}
      propertyPath: m_RootOrder
      value: 30
      objectReference: {fileID: 0}
    m_RemovedComponents: []
  m_SourcePrefab: {fileID: 100100000, guid: df00b95dd377f8f4fa6a75377aa47a42, type: 3}
--- !u!4 &984231546 stripped
Transform:
  m_CorrespondingSourceObject: {fileID: 4007913983656706, guid: df00b95dd377f8f4fa6a75377aa47a42,
    type: 3}
  m_PrefabInstance: {fileID: 984231545}
  m_PrefabAsset: {fileID: 0}
--- !u!1001 &1018227260
PrefabInstance:
  m_ObjectHideFlags: 0
  serializedVersion: 2
  m_Modification:
    m_TransformParent: {fileID: 332136631}
    m_Modifications:
    - target: {fileID: 4144003266972280, guid: 5f19be0067756ea45bd6b780e9794b80, type: 2}
      propertyPath: m_LocalPosition.x
      value: -1.4838507
      objectReference: {fileID: 0}
    - target: {fileID: 4144003266972280, guid: 5f19be0067756ea45bd6b780e9794b80, type: 2}
      propertyPath: m_LocalPosition.y
      value: 0.022100963
      objectReference: {fileID: 0}
    - target: {fileID: 4144003266972280, guid: 5f19be0067756ea45bd6b780e9794b80, type: 2}
      propertyPath: m_LocalPosition.z
      value: 5.741027
      objectReference: {fileID: 0}
    - target: {fileID: 4144003266972280, guid: 5f19be0067756ea45bd6b780e9794b80, type: 2}
      propertyPath: m_LocalRotation.x
      value: 0.000000021855694
      objectReference: {fileID: 0}
    - target: {fileID: 4144003266972280, guid: 5f19be0067756ea45bd6b780e9794b80, type: 2}
      propertyPath: m_LocalRotation.y
      value: 0
      objectReference: {fileID: 0}
    - target: {fileID: 4144003266972280, guid: 5f19be0067756ea45bd6b780e9794b80, type: 2}
      propertyPath: m_LocalRotation.z
      value: -0
      objectReference: {fileID: 0}
    - target: {fileID: 4144003266972280, guid: 5f19be0067756ea45bd6b780e9794b80, type: 2}
      propertyPath: m_LocalRotation.w
      value: 1
      objectReference: {fileID: 0}
    - target: {fileID: 4144003266972280, guid: 5f19be0067756ea45bd6b780e9794b80, type: 2}
      propertyPath: m_RootOrder
      value: 14
      objectReference: {fileID: 0}
    m_RemovedComponents: []
  m_SourcePrefab: {fileID: 100100000, guid: 5f19be0067756ea45bd6b780e9794b80, type: 2}
--- !u!4 &1018227261 stripped
Transform:
  m_CorrespondingSourceObject: {fileID: 0}
  m_PrefabInstance: {fileID: 1018227260}
  m_PrefabAsset: {fileID: 0}
--- !u!1001 &1059274738
PrefabInstance:
  m_ObjectHideFlags: 0
  serializedVersion: 2
  m_Modification:
    m_TransformParent: {fileID: 332136631}
    m_Modifications:
    - target: {fileID: 4296929895643056, guid: 6191d242d97347540a6f4263049bdfed, type: 2}
      propertyPath: m_LocalPosition.x
      value: -1.1343077
      objectReference: {fileID: 0}
    - target: {fileID: 4296929895643056, guid: 6191d242d97347540a6f4263049bdfed, type: 2}
      propertyPath: m_LocalPosition.y
      value: 0.15578716
      objectReference: {fileID: 0}
    - target: {fileID: 4296929895643056, guid: 6191d242d97347540a6f4263049bdfed, type: 2}
      propertyPath: m_LocalPosition.z
      value: 1.1213555
      objectReference: {fileID: 0}
    - target: {fileID: 4296929895643056, guid: 6191d242d97347540a6f4263049bdfed, type: 2}
      propertyPath: m_LocalRotation.x
      value: 0.000000021855694
      objectReference: {fileID: 0}
    - target: {fileID: 4296929895643056, guid: 6191d242d97347540a6f4263049bdfed, type: 2}
      propertyPath: m_LocalRotation.y
      value: 0
      objectReference: {fileID: 0}
    - target: {fileID: 4296929895643056, guid: 6191d242d97347540a6f4263049bdfed, type: 2}
      propertyPath: m_LocalRotation.z
      value: -0
      objectReference: {fileID: 0}
    - target: {fileID: 4296929895643056, guid: 6191d242d97347540a6f4263049bdfed, type: 2}
      propertyPath: m_LocalRotation.w
      value: 1
      objectReference: {fileID: 0}
    - target: {fileID: 4296929895643056, guid: 6191d242d97347540a6f4263049bdfed, type: 2}
      propertyPath: m_RootOrder
      value: 15
      objectReference: {fileID: 0}
    m_RemovedComponents: []
  m_SourcePrefab: {fileID: 100100000, guid: 6191d242d97347540a6f4263049bdfed, type: 2}
--- !u!4 &1059274739 stripped
Transform:
  m_CorrespondingSourceObject: {fileID: 0}
  m_PrefabInstance: {fileID: 1059274738}
  m_PrefabAsset: {fileID: 0}
--- !u!1001 &1113489173
PrefabInstance:
  m_ObjectHideFlags: 0
  serializedVersion: 2
  m_Modification:
    m_TransformParent: {fileID: 332136631}
    m_Modifications:
    - target: {fileID: 4092730746449522, guid: 56c471fa60a91ff47aad2dc54e7d196a, type: 3}
      propertyPath: m_LocalPosition.x
      value: -3.9619002
      objectReference: {fileID: 0}
    - target: {fileID: 4092730746449522, guid: 56c471fa60a91ff47aad2dc54e7d196a, type: 3}
      propertyPath: m_LocalPosition.y
      value: 0
      objectReference: {fileID: 0}
    - target: {fileID: 4092730746449522, guid: 56c471fa60a91ff47aad2dc54e7d196a, type: 3}
      propertyPath: m_LocalPosition.z
      value: -2.6992807
      objectReference: {fileID: 0}
    - target: {fileID: 4092730746449522, guid: 56c471fa60a91ff47aad2dc54e7d196a, type: 3}
      propertyPath: m_LocalRotation.x
      value: 0.000000021855694
      objectReference: {fileID: 0}
    - target: {fileID: 4092730746449522, guid: 56c471fa60a91ff47aad2dc54e7d196a, type: 3}
      propertyPath: m_LocalRotation.y
      value: 0
      objectReference: {fileID: 0}
    - target: {fileID: 4092730746449522, guid: 56c471fa60a91ff47aad2dc54e7d196a, type: 3}
      propertyPath: m_LocalRotation.z
      value: -0
      objectReference: {fileID: 0}
    - target: {fileID: 4092730746449522, guid: 56c471fa60a91ff47aad2dc54e7d196a, type: 3}
      propertyPath: m_LocalRotation.w
      value: 1
      objectReference: {fileID: 0}
    - target: {fileID: 4092730746449522, guid: 56c471fa60a91ff47aad2dc54e7d196a, type: 3}
      propertyPath: m_RootOrder
      value: 37
      objectReference: {fileID: 0}
    m_RemovedComponents: []
  m_SourcePrefab: {fileID: 100100000, guid: 56c471fa60a91ff47aad2dc54e7d196a, type: 3}
--- !u!4 &1113489174 stripped
Transform:
  m_CorrespondingSourceObject: {fileID: 4092730746449522, guid: 56c471fa60a91ff47aad2dc54e7d196a,
    type: 3}
  m_PrefabInstance: {fileID: 1113489173}
  m_PrefabAsset: {fileID: 0}
--- !u!1001 &1155045574
PrefabInstance:
  m_ObjectHideFlags: 0
  serializedVersion: 2
  m_Modification:
    m_TransformParent: {fileID: 332136631}
    m_Modifications:
    - target: {fileID: 4844460577631706, guid: c3ac01a483bb3fd4fac43624af451255, type: 3}
      propertyPath: m_LocalPosition.x
      value: -6.403552
      objectReference: {fileID: 0}
    - target: {fileID: 4844460577631706, guid: c3ac01a483bb3fd4fac43624af451255, type: 3}
      propertyPath: m_LocalPosition.y
      value: 0.6739067
      objectReference: {fileID: 0}
    - target: {fileID: 4844460577631706, guid: c3ac01a483bb3fd4fac43624af451255, type: 3}
      propertyPath: m_LocalPosition.z
      value: 6.158385
      objectReference: {fileID: 0}
    - target: {fileID: 4844460577631706, guid: c3ac01a483bb3fd4fac43624af451255, type: 3}
      propertyPath: m_LocalRotation.x
      value: 0.000000021855694
      objectReference: {fileID: 0}
    - target: {fileID: 4844460577631706, guid: c3ac01a483bb3fd4fac43624af451255, type: 3}
      propertyPath: m_LocalRotation.y
      value: 0
      objectReference: {fileID: 0}
    - target: {fileID: 4844460577631706, guid: c3ac01a483bb3fd4fac43624af451255, type: 3}
      propertyPath: m_LocalRotation.z
      value: -0
      objectReference: {fileID: 0}
    - target: {fileID: 4844460577631706, guid: c3ac01a483bb3fd4fac43624af451255, type: 3}
      propertyPath: m_LocalRotation.w
      value: 1
      objectReference: {fileID: 0}
    - target: {fileID: 4844460577631706, guid: c3ac01a483bb3fd4fac43624af451255, type: 3}
      propertyPath: m_RootOrder
      value: 4
      objectReference: {fileID: 0}
    m_RemovedComponents: []
  m_SourcePrefab: {fileID: 100100000, guid: c3ac01a483bb3fd4fac43624af451255, type: 3}
--- !u!4 &1155045575 stripped
Transform:
  m_CorrespondingSourceObject: {fileID: 4844460577631706, guid: c3ac01a483bb3fd4fac43624af451255,
    type: 3}
  m_PrefabInstance: {fileID: 1155045574}
  m_PrefabAsset: {fileID: 0}
--- !u!1001 &1173236129
PrefabInstance:
  m_ObjectHideFlags: 0
  serializedVersion: 2
  m_Modification:
    m_TransformParent: {fileID: 332136631}
    m_Modifications:
    - target: {fileID: 4148089856432366, guid: 36d90c33e9b776448a1f2dfc975ffda5, type: 3}
      propertyPath: m_LocalPosition.x
      value: 3.4092999
      objectReference: {fileID: 0}
    - target: {fileID: 4148089856432366, guid: 36d90c33e9b776448a1f2dfc975ffda5, type: 3}
      propertyPath: m_LocalPosition.y
      value: 0
      objectReference: {fileID: 0}
    - target: {fileID: 4148089856432366, guid: 36d90c33e9b776448a1f2dfc975ffda5, type: 3}
      propertyPath: m_LocalPosition.z
      value: -2.670383
      objectReference: {fileID: 0}
    - target: {fileID: 4148089856432366, guid: 36d90c33e9b776448a1f2dfc975ffda5, type: 3}
      propertyPath: m_LocalRotation.x
      value: 0.000000021855694
      objectReference: {fileID: 0}
    - target: {fileID: 4148089856432366, guid: 36d90c33e9b776448a1f2dfc975ffda5, type: 3}
      propertyPath: m_LocalRotation.y
      value: 0
      objectReference: {fileID: 0}
    - target: {fileID: 4148089856432366, guid: 36d90c33e9b776448a1f2dfc975ffda5, type: 3}
      propertyPath: m_LocalRotation.z
      value: -0
      objectReference: {fileID: 0}
    - target: {fileID: 4148089856432366, guid: 36d90c33e9b776448a1f2dfc975ffda5, type: 3}
      propertyPath: m_LocalRotation.w
      value: 1
      objectReference: {fileID: 0}
    - target: {fileID: 4148089856432366, guid: 36d90c33e9b776448a1f2dfc975ffda5, type: 3}
      propertyPath: m_RootOrder
      value: 33
      objectReference: {fileID: 0}
    m_RemovedComponents: []
  m_SourcePrefab: {fileID: 100100000, guid: 36d90c33e9b776448a1f2dfc975ffda5, type: 3}
--- !u!4 &1173236130 stripped
Transform:
  m_CorrespondingSourceObject: {fileID: 4148089856432366, guid: 36d90c33e9b776448a1f2dfc975ffda5,
    type: 3}
  m_PrefabInstance: {fileID: 1173236129}
  m_PrefabAsset: {fileID: 0}
--- !u!1001 &1198252143
PrefabInstance:
  m_ObjectHideFlags: 0
  serializedVersion: 2
  m_Modification:
    m_TransformParent: {fileID: 332136631}
    m_Modifications:
    - target: {fileID: 4318851488116788, guid: dbaf68191bab69546985647875561946, type: 3}
      propertyPath: m_LocalPosition.x
      value: -1.6581924
      objectReference: {fileID: 0}
    - target: {fileID: 4318851488116788, guid: dbaf68191bab69546985647875561946, type: 3}
      propertyPath: m_LocalPosition.y
      value: 0
      objectReference: {fileID: 0}
    - target: {fileID: 4318851488116788, guid: dbaf68191bab69546985647875561946, type: 3}
      propertyPath: m_LocalPosition.z
      value: -7.8078465
      objectReference: {fileID: 0}
    - target: {fileID: 4318851488116788, guid: dbaf68191bab69546985647875561946, type: 3}
      propertyPath: m_LocalRotation.x
      value: 0.000000021855694
      objectReference: {fileID: 0}
    - target: {fileID: 4318851488116788, guid: dbaf68191bab69546985647875561946, type: 3}
      propertyPath: m_LocalRotation.y
      value: 0
      objectReference: {fileID: 0}
    - target: {fileID: 4318851488116788, guid: dbaf68191bab69546985647875561946, type: 3}
      propertyPath: m_LocalRotation.z
      value: -0
      objectReference: {fileID: 0}
    - target: {fileID: 4318851488116788, guid: dbaf68191bab69546985647875561946, type: 3}
      propertyPath: m_LocalRotation.w
      value: 1
      objectReference: {fileID: 0}
    - target: {fileID: 4318851488116788, guid: dbaf68191bab69546985647875561946, type: 3}
      propertyPath: m_RootOrder
      value: 26
      objectReference: {fileID: 0}
    m_RemovedComponents: []
  m_SourcePrefab: {fileID: 100100000, guid: dbaf68191bab69546985647875561946, type: 3}
--- !u!4 &1198252144 stripped
Transform:
  m_CorrespondingSourceObject: {fileID: 4318851488116788, guid: dbaf68191bab69546985647875561946,
    type: 3}
  m_PrefabInstance: {fileID: 1198252143}
  m_PrefabAsset: {fileID: 0}
--- !u!1001 &1203437545
PrefabInstance:
  m_ObjectHideFlags: 0
  serializedVersion: 2
  m_Modification:
    m_TransformParent: {fileID: 332136631}
    m_Modifications:
    - target: {fileID: 4394094372344728, guid: 9db57954271991a4f84773d7d31e291b, type: 3}
      propertyPath: m_LocalPosition.x
      value: 4.8027616
      objectReference: {fileID: 0}
    - target: {fileID: 4394094372344728, guid: 9db57954271991a4f84773d7d31e291b, type: 3}
      propertyPath: m_LocalPosition.y
      value: 0
      objectReference: {fileID: 0}
    - target: {fileID: 4394094372344728, guid: 9db57954271991a4f84773d7d31e291b, type: 3}
      propertyPath: m_LocalPosition.z
      value: -11.373807
      objectReference: {fileID: 0}
    - target: {fileID: 4394094372344728, guid: 9db57954271991a4f84773d7d31e291b, type: 3}
      propertyPath: m_LocalRotation.x
      value: 0.000000021855694
      objectReference: {fileID: 0}
    - target: {fileID: 4394094372344728, guid: 9db57954271991a4f84773d7d31e291b, type: 3}
      propertyPath: m_LocalRotation.y
      value: 0
      objectReference: {fileID: 0}
    - target: {fileID: 4394094372344728, guid: 9db57954271991a4f84773d7d31e291b, type: 3}
      propertyPath: m_LocalRotation.z
      value: -0
      objectReference: {fileID: 0}
    - target: {fileID: 4394094372344728, guid: 9db57954271991a4f84773d7d31e291b, type: 3}
      propertyPath: m_LocalRotation.w
      value: 1
      objectReference: {fileID: 0}
    - target: {fileID: 4394094372344728, guid: 9db57954271991a4f84773d7d31e291b, type: 3}
      propertyPath: m_RootOrder
      value: 21
      objectReference: {fileID: 0}
    m_RemovedComponents: []
  m_SourcePrefab: {fileID: 100100000, guid: 9db57954271991a4f84773d7d31e291b, type: 3}
--- !u!4 &1203437546 stripped
Transform:
  m_CorrespondingSourceObject: {fileID: 4394094372344728, guid: 9db57954271991a4f84773d7d31e291b,
    type: 3}
  m_PrefabInstance: {fileID: 1203437545}
  m_PrefabAsset: {fileID: 0}
--- !u!1001 &1210347517
PrefabInstance:
  m_ObjectHideFlags: 0
  serializedVersion: 2
  m_Modification:
    m_TransformParent: {fileID: 332136631}
    m_Modifications:
    - target: {fileID: 4760595399001204, guid: 32ef5384bf03a5c459962867b76db0cf, type: 2}
      propertyPath: m_LocalPosition.x
      value: 2.6927123
      objectReference: {fileID: 0}
    - target: {fileID: 4760595399001204, guid: 32ef5384bf03a5c459962867b76db0cf, type: 2}
      propertyPath: m_LocalPosition.y
      value: 0.6777117
      objectReference: {fileID: 0}
    - target: {fileID: 4760595399001204, guid: 32ef5384bf03a5c459962867b76db0cf, type: 2}
      propertyPath: m_LocalPosition.z
      value: 4.4747624
      objectReference: {fileID: 0}
    - target: {fileID: 4760595399001204, guid: 32ef5384bf03a5c459962867b76db0cf, type: 2}
      propertyPath: m_LocalRotation.x
      value: 0.000000021855694
      objectReference: {fileID: 0}
    - target: {fileID: 4760595399001204, guid: 32ef5384bf03a5c459962867b76db0cf, type: 2}
      propertyPath: m_LocalRotation.y
      value: 0
      objectReference: {fileID: 0}
    - target: {fileID: 4760595399001204, guid: 32ef5384bf03a5c459962867b76db0cf, type: 2}
      propertyPath: m_LocalRotation.z
      value: -0
      objectReference: {fileID: 0}
    - target: {fileID: 4760595399001204, guid: 32ef5384bf03a5c459962867b76db0cf, type: 2}
      propertyPath: m_LocalRotation.w
      value: 1
      objectReference: {fileID: 0}
    - target: {fileID: 4760595399001204, guid: 32ef5384bf03a5c459962867b76db0cf, type: 2}
      propertyPath: m_RootOrder
      value: 11
      objectReference: {fileID: 0}
    m_RemovedComponents: []
  m_SourcePrefab: {fileID: 100100000, guid: 32ef5384bf03a5c459962867b76db0cf, type: 2}
--- !u!4 &1210347518 stripped
Transform:
  m_CorrespondingSourceObject: {fileID: 0}
  m_PrefabInstance: {fileID: 1210347517}
  m_PrefabAsset: {fileID: 0}
--- !u!1001 &1282821930
PrefabInstance:
  m_ObjectHideFlags: 0
  serializedVersion: 2
  m_Modification:
    m_TransformParent: {fileID: 332136631}
    m_Modifications:
    - target: {fileID: 4710692867113544, guid: b4572596b6a569946aedef79f222fa22, type: 2}
      propertyPath: m_LocalPosition.x
      value: -3.570144
      objectReference: {fileID: 0}
    - target: {fileID: 4710692867113544, guid: b4572596b6a569946aedef79f222fa22, type: 2}
      propertyPath: m_LocalPosition.y
      value: 0.40123603
      objectReference: {fileID: 0}
    - target: {fileID: 4710692867113544, guid: b4572596b6a569946aedef79f222fa22, type: 2}
      propertyPath: m_LocalPosition.z
      value: 5.415445
      objectReference: {fileID: 0}
    - target: {fileID: 4710692867113544, guid: b4572596b6a569946aedef79f222fa22, type: 2}
      propertyPath: m_LocalRotation.x
      value: 0.000000021855694
      objectReference: {fileID: 0}
    - target: {fileID: 4710692867113544, guid: b4572596b6a569946aedef79f222fa22, type: 2}
      propertyPath: m_LocalRotation.y
      value: 0
      objectReference: {fileID: 0}
    - target: {fileID: 4710692867113544, guid: b4572596b6a569946aedef79f222fa22, type: 2}
      propertyPath: m_LocalRotation.z
      value: -0
      objectReference: {fileID: 0}
    - target: {fileID: 4710692867113544, guid: b4572596b6a569946aedef79f222fa22, type: 2}
      propertyPath: m_LocalRotation.w
      value: 1
      objectReference: {fileID: 0}
    - target: {fileID: 4710692867113544, guid: b4572596b6a569946aedef79f222fa22, type: 2}
      propertyPath: m_RootOrder
      value: 44
      objectReference: {fileID: 0}
    m_RemovedComponents: []
  m_SourcePrefab: {fileID: 100100000, guid: b4572596b6a569946aedef79f222fa22, type: 2}
--- !u!4 &1282821931 stripped
Transform:
  m_CorrespondingSourceObject: {fileID: 0}
  m_PrefabInstance: {fileID: 1282821930}
  m_PrefabAsset: {fileID: 0}
--- !u!1001 &1318573901
PrefabInstance:
  m_ObjectHideFlags: 0
  serializedVersion: 2
  m_Modification:
    m_TransformParent: {fileID: 332136631}
    m_Modifications:
    - target: {fileID: 4878202159923794, guid: e745df1298631f24789a1313146ae9a5, type: 3}
      propertyPath: m_LocalPosition.x
      value: 5.3302555
      objectReference: {fileID: 0}
    - target: {fileID: 4878202159923794, guid: e745df1298631f24789a1313146ae9a5, type: 3}
      propertyPath: m_LocalPosition.y
      value: 0
      objectReference: {fileID: 0}
    - target: {fileID: 4878202159923794, guid: e745df1298631f24789a1313146ae9a5, type: 3}
      propertyPath: m_LocalPosition.z
      value: -2.6260827
      objectReference: {fileID: 0}
    - target: {fileID: 4878202159923794, guid: e745df1298631f24789a1313146ae9a5, type: 3}
      propertyPath: m_LocalRotation.x
      value: 0.000000021855694
      objectReference: {fileID: 0}
    - target: {fileID: 4878202159923794, guid: e745df1298631f24789a1313146ae9a5, type: 3}
      propertyPath: m_LocalRotation.y
      value: 0
      objectReference: {fileID: 0}
    - target: {fileID: 4878202159923794, guid: e745df1298631f24789a1313146ae9a5, type: 3}
      propertyPath: m_LocalRotation.z
      value: -0
      objectReference: {fileID: 0}
    - target: {fileID: 4878202159923794, guid: e745df1298631f24789a1313146ae9a5, type: 3}
      propertyPath: m_LocalRotation.w
      value: 1
      objectReference: {fileID: 0}
    - target: {fileID: 4878202159923794, guid: e745df1298631f24789a1313146ae9a5, type: 3}
      propertyPath: m_RootOrder
      value: 32
      objectReference: {fileID: 0}
    m_RemovedComponents: []
  m_SourcePrefab: {fileID: 100100000, guid: e745df1298631f24789a1313146ae9a5, type: 3}
--- !u!4 &1318573902 stripped
Transform:
  m_CorrespondingSourceObject: {fileID: 4878202159923794, guid: e745df1298631f24789a1313146ae9a5,
    type: 3}
  m_PrefabInstance: {fileID: 1318573901}
  m_PrefabAsset: {fileID: 0}
--- !u!1001 &1421726560
PrefabInstance:
  m_ObjectHideFlags: 0
  serializedVersion: 2
  m_Modification:
    m_TransformParent: {fileID: 332136631}
    m_Modifications:
    - target: {fileID: 4257528672847878, guid: e3df14a44368b9c47a6175eebd31535d, type: 2}
      propertyPath: m_LocalPosition.x
      value: -2.6018975
      objectReference: {fileID: 0}
    - target: {fileID: 4257528672847878, guid: e3df14a44368b9c47a6175eebd31535d, type: 2}
      propertyPath: m_LocalPosition.y
      value: 0.054051645
      objectReference: {fileID: 0}
    - target: {fileID: 4257528672847878, guid: e3df14a44368b9c47a6175eebd31535d, type: 2}
      propertyPath: m_LocalPosition.z
      value: 5.9566307
      objectReference: {fileID: 0}
    - target: {fileID: 4257528672847878, guid: e3df14a44368b9c47a6175eebd31535d, type: 2}
      propertyPath: m_LocalRotation.x
      value: 0.000000021855694
      objectReference: {fileID: 0}
    - target: {fileID: 4257528672847878, guid: e3df14a44368b9c47a6175eebd31535d, type: 2}
      propertyPath: m_LocalRotation.y
      value: 0
      objectReference: {fileID: 0}
    - target: {fileID: 4257528672847878, guid: e3df14a44368b9c47a6175eebd31535d, type: 2}
      propertyPath: m_LocalRotation.z
      value: -0
      objectReference: {fileID: 0}
    - target: {fileID: 4257528672847878, guid: e3df14a44368b9c47a6175eebd31535d, type: 2}
      propertyPath: m_LocalRotation.w
      value: 1
      objectReference: {fileID: 0}
    - target: {fileID: 4257528672847878, guid: e3df14a44368b9c47a6175eebd31535d, type: 2}
      propertyPath: m_RootOrder
      value: 41
      objectReference: {fileID: 0}
    m_RemovedComponents: []
  m_SourcePrefab: {fileID: 100100000, guid: e3df14a44368b9c47a6175eebd31535d, type: 2}
--- !u!4 &1421726561 stripped
Transform:
  m_CorrespondingSourceObject: {fileID: 0}
  m_PrefabInstance: {fileID: 1421726560}
  m_PrefabAsset: {fileID: 0}
--- !u!1001 &1530069777
PrefabInstance:
  m_ObjectHideFlags: 0
  serializedVersion: 2
  m_Modification:
    m_TransformParent: {fileID: 332136631}
    m_Modifications:
    - target: {fileID: 4732669109111390, guid: a9be5f8d69d77f346a425712248b814c, type: 3}
      propertyPath: m_LocalPosition.x
      value: 5.2424254
      objectReference: {fileID: 0}
    - target: {fileID: 4732669109111390, guid: a9be5f8d69d77f346a425712248b814c, type: 3}
      propertyPath: m_LocalPosition.y
      value: 0
      objectReference: {fileID: 0}
    - target: {fileID: 4732669109111390, guid: a9be5f8d69d77f346a425712248b814c, type: 3}
      propertyPath: m_LocalPosition.z
      value: -7.8919687
      objectReference: {fileID: 0}
    - target: {fileID: 4732669109111390, guid: a9be5f8d69d77f346a425712248b814c, type: 3}
      propertyPath: m_LocalRotation.x
      value: 0.000000021855694
      objectReference: {fileID: 0}
    - target: {fileID: 4732669109111390, guid: a9be5f8d69d77f346a425712248b814c, type: 3}
      propertyPath: m_LocalRotation.y
      value: 0
      objectReference: {fileID: 0}
    - target: {fileID: 4732669109111390, guid: a9be5f8d69d77f346a425712248b814c, type: 3}
      propertyPath: m_LocalRotation.z
      value: -0
      objectReference: {fileID: 0}
    - target: {fileID: 4732669109111390, guid: a9be5f8d69d77f346a425712248b814c, type: 3}
      propertyPath: m_LocalRotation.w
      value: 1
      objectReference: {fileID: 0}
    - target: {fileID: 4732669109111390, guid: a9be5f8d69d77f346a425712248b814c, type: 3}
      propertyPath: m_RootOrder
      value: 24
      objectReference: {fileID: 0}
    m_RemovedComponents: []
  m_SourcePrefab: {fileID: 100100000, guid: a9be5f8d69d77f346a425712248b814c, type: 3}
--- !u!4 &1530069778 stripped
Transform:
  m_CorrespondingSourceObject: {fileID: 4732669109111390, guid: a9be5f8d69d77f346a425712248b814c,
    type: 3}
  m_PrefabInstance: {fileID: 1530069777}
  m_PrefabAsset: {fileID: 0}
--- !u!1001 &1590236849
PrefabInstance:
  m_ObjectHideFlags: 0
  serializedVersion: 2
  m_Modification:
    m_TransformParent: {fileID: 332136631}
    m_Modifications:
    - target: {fileID: 4209304909141698, guid: b116d663e63776b498d940fc62356957, type: 2}
      propertyPath: m_LocalPosition.x
      value: -3.588994
      objectReference: {fileID: 0}
    - target: {fileID: 4209304909141698, guid: b116d663e63776b498d940fc62356957, type: 2}
      propertyPath: m_LocalPosition.y
      value: 0.12512207
      objectReference: {fileID: 0}
    - target: {fileID: 4209304909141698, guid: b116d663e63776b498d940fc62356957, type: 2}
      propertyPath: m_LocalPosition.z
      value: 1.1342745
      objectReference: {fileID: 0}
    - target: {fileID: 4209304909141698, guid: b116d663e63776b498d940fc62356957, type: 2}
      propertyPath: m_LocalRotation.x
      value: 0.000000021855694
      objectReference: {fileID: 0}
    - target: {fileID: 4209304909141698, guid: b116d663e63776b498d940fc62356957, type: 2}
      propertyPath: m_LocalRotation.y
      value: 0
      objectReference: {fileID: 0}
    - target: {fileID: 4209304909141698, guid: b116d663e63776b498d940fc62356957, type: 2}
      propertyPath: m_LocalRotation.z
      value: -0
      objectReference: {fileID: 0}
    - target: {fileID: 4209304909141698, guid: b116d663e63776b498d940fc62356957, type: 2}
      propertyPath: m_LocalRotation.w
      value: 1
      objectReference: {fileID: 0}
    - target: {fileID: 4209304909141698, guid: b116d663e63776b498d940fc62356957, type: 2}
      propertyPath: m_RootOrder
      value: 39
      objectReference: {fileID: 0}
    m_RemovedComponents: []
  m_SourcePrefab: {fileID: 100100000, guid: b116d663e63776b498d940fc62356957, type: 2}
--- !u!4 &1590236850 stripped
Transform:
  m_CorrespondingSourceObject: {fileID: 0}
  m_PrefabInstance: {fileID: 1590236849}
  m_PrefabAsset: {fileID: 0}
--- !u!1001 &1634232544
PrefabInstance:
  m_ObjectHideFlags: 0
  serializedVersion: 2
  m_Modification:
    m_TransformParent: {fileID: 332136631}
    m_Modifications:
    - target: {fileID: 4767933163431898, guid: 75940785cec02894881375a52dcba655, type: 2}
      propertyPath: m_LocalPosition.x
      value: 1.6215924
      objectReference: {fileID: 0}
    - target: {fileID: 4767933163431898, guid: 75940785cec02894881375a52dcba655, type: 2}
      propertyPath: m_LocalPosition.y
      value: 0.27828345
      objectReference: {fileID: 0}
    - target: {fileID: 4767933163431898, guid: 75940785cec02894881375a52dcba655, type: 2}
      propertyPath: m_LocalPosition.z
      value: 1.085422
      objectReference: {fileID: 0}
    - target: {fileID: 4767933163431898, guid: 75940785cec02894881375a52dcba655, type: 2}
      propertyPath: m_LocalRotation.x
      value: 0.00000016888312
      objectReference: {fileID: 0}
    - target: {fileID: 4767933163431898, guid: 75940785cec02894881375a52dcba655, type: 2}
      propertyPath: m_LocalRotation.y
      value: 0
      objectReference: {fileID: 0}
    - target: {fileID: 4767933163431898, guid: 75940785cec02894881375a52dcba655, type: 2}
      propertyPath: m_LocalRotation.z
      value: -0
      objectReference: {fileID: 0}
    - target: {fileID: 4767933163431898, guid: 75940785cec02894881375a52dcba655, type: 2}
      propertyPath: m_LocalRotation.w
      value: 1
      objectReference: {fileID: 0}
    - target: {fileID: 4767933163431898, guid: 75940785cec02894881375a52dcba655, type: 2}
      propertyPath: m_RootOrder
      value: 19
      objectReference: {fileID: 0}
    m_RemovedComponents: []
  m_SourcePrefab: {fileID: 100100000, guid: 75940785cec02894881375a52dcba655, type: 2}
--- !u!4 &1634232545 stripped
Transform:
  m_CorrespondingSourceObject: {fileID: 0}
  m_PrefabInstance: {fileID: 1634232544}
  m_PrefabAsset: {fileID: 0}
--- !u!1001 &1852295714
PrefabInstance:
  m_ObjectHideFlags: 0
  serializedVersion: 2
  m_Modification:
    m_TransformParent: {fileID: 332136631}
    m_Modifications:
    - target: {fileID: 4671811494041908, guid: 7e7ac078c68820d4e8f9deec111d9d53, type: 3}
      propertyPath: m_LocalPosition.x
      value: 10.643766
      objectReference: {fileID: 0}
    - target: {fileID: 4671811494041908, guid: 7e7ac078c68820d4e8f9deec111d9d53, type: 3}
      propertyPath: m_LocalPosition.y
      value: 1.1857612
      objectReference: {fileID: 0}
    - target: {fileID: 4671811494041908, guid: 7e7ac078c68820d4e8f9deec111d9d53, type: 3}
      propertyPath: m_LocalPosition.z
      value: 3.3434353
      objectReference: {fileID: 0}
    - target: {fileID: 4671811494041908, guid: 7e7ac078c68820d4e8f9deec111d9d53, type: 3}
      propertyPath: m_LocalRotation.x
      value: 0.000000021855694
      objectReference: {fileID: 0}
    - target: {fileID: 4671811494041908, guid: 7e7ac078c68820d4e8f9deec111d9d53, type: 3}
      propertyPath: m_LocalRotation.y
      value: 0
      objectReference: {fileID: 0}
    - target: {fileID: 4671811494041908, guid: 7e7ac078c68820d4e8f9deec111d9d53, type: 3}
      propertyPath: m_LocalRotation.z
      value: -0
      objectReference: {fileID: 0}
    - target: {fileID: 4671811494041908, guid: 7e7ac078c68820d4e8f9deec111d9d53, type: 3}
      propertyPath: m_LocalRotation.w
      value: 1
      objectReference: {fileID: 0}
    - target: {fileID: 4671811494041908, guid: 7e7ac078c68820d4e8f9deec111d9d53, type: 3}
      propertyPath: m_RootOrder
      value: 8
      objectReference: {fileID: 0}
    m_RemovedComponents: []
  m_SourcePrefab: {fileID: 100100000, guid: 7e7ac078c68820d4e8f9deec111d9d53, type: 3}
--- !u!4 &1852295715 stripped
Transform:
  m_CorrespondingSourceObject: {fileID: 4671811494041908, guid: 7e7ac078c68820d4e8f9deec111d9d53,
    type: 3}
  m_PrefabInstance: {fileID: 1852295714}
  m_PrefabAsset: {fileID: 0}
--- !u!1001 &1860043131
PrefabInstance:
  m_ObjectHideFlags: 0
  serializedVersion: 2
  m_Modification:
    m_TransformParent: {fileID: 332136631}
    m_Modifications:
    - target: {fileID: 4239310807838762, guid: 2c9868bb7821e484083e774038674eb1, type: 2}
      propertyPath: m_LocalPosition.x
      value: -4.3003354
      objectReference: {fileID: 0}
    - target: {fileID: 4239310807838762, guid: 2c9868bb7821e484083e774038674eb1, type: 2}
      propertyPath: m_LocalPosition.y
      value: 0.17308252
      objectReference: {fileID: 0}
    - target: {fileID: 4239310807838762, guid: 2c9868bb7821e484083e774038674eb1, type: 2}
      propertyPath: m_LocalPosition.z
      value: 6.3317595
      objectReference: {fileID: 0}
    - target: {fileID: 4239310807838762, guid: 2c9868bb7821e484083e774038674eb1, type: 2}
      propertyPath: m_LocalRotation.x
      value: 0.000000021855694
      objectReference: {fileID: 0}
    - target: {fileID: 4239310807838762, guid: 2c9868bb7821e484083e774038674eb1, type: 2}
      propertyPath: m_LocalRotation.y
      value: 0
      objectReference: {fileID: 0}
    - target: {fileID: 4239310807838762, guid: 2c9868bb7821e484083e774038674eb1, type: 2}
      propertyPath: m_LocalRotation.z
      value: -0
      objectReference: {fileID: 0}
    - target: {fileID: 4239310807838762, guid: 2c9868bb7821e484083e774038674eb1, type: 2}
      propertyPath: m_LocalRotation.w
      value: 1
      objectReference: {fileID: 0}
    - target: {fileID: 4239310807838762, guid: 2c9868bb7821e484083e774038674eb1, type: 2}
      propertyPath: m_RootOrder
      value: 12
      objectReference: {fileID: 0}
    m_RemovedComponents: []
  m_SourcePrefab: {fileID: 100100000, guid: 2c9868bb7821e484083e774038674eb1, type: 2}
--- !u!4 &1860043132 stripped
Transform:
  m_CorrespondingSourceObject: {fileID: 0}
  m_PrefabInstance: {fileID: 1860043131}
  m_PrefabAsset: {fileID: 0}
--- !u!1001 &1890375829
PrefabInstance:
  m_ObjectHideFlags: 0
  serializedVersion: 2
  m_Modification:
    m_TransformParent: {fileID: 332136631}
    m_Modifications:
    - target: {fileID: 4912423813574872, guid: 60843c6f0abfe104f8c631aabae51301, type: 2}
      propertyPath: m_LocalPosition.x
      value: -1.6313837
      objectReference: {fileID: 0}
    - target: {fileID: 4912423813574872, guid: 60843c6f0abfe104f8c631aabae51301, type: 2}
      propertyPath: m_LocalPosition.y
      value: 0.26751688
      objectReference: {fileID: 0}
    - target: {fileID: 4912423813574872, guid: 60843c6f0abfe104f8c631aabae51301, type: 2}
      propertyPath: m_LocalPosition.z
      value: 4.6435785
      objectReference: {fileID: 0}
    - target: {fileID: 4912423813574872, guid: 60843c6f0abfe104f8c631aabae51301, type: 2}
      propertyPath: m_LocalRotation.x
      value: 0.000000021855694
      objectReference: {fileID: 0}
    - target: {fileID: 4912423813574872, guid: 60843c6f0abfe104f8c631aabae51301, type: 2}
      propertyPath: m_LocalRotation.y
      value: 0
      objectReference: {fileID: 0}
    - target: {fileID: 4912423813574872, guid: 60843c6f0abfe104f8c631aabae51301, type: 2}
      propertyPath: m_LocalRotation.z
      value: -0
      objectReference: {fileID: 0}
    - target: {fileID: 4912423813574872, guid: 60843c6f0abfe104f8c631aabae51301, type: 2}
      propertyPath: m_LocalRotation.w
      value: 1
      objectReference: {fileID: 0}
    - target: {fileID: 4912423813574872, guid: 60843c6f0abfe104f8c631aabae51301, type: 2}
      propertyPath: m_RootOrder
      value: 9
      objectReference: {fileID: 0}
    m_RemovedComponents: []
  m_SourcePrefab: {fileID: 100100000, guid: 60843c6f0abfe104f8c631aabae51301, type: 2}
--- !u!4 &1890375830 stripped
Transform:
  m_CorrespondingSourceObject: {fileID: 0}
  m_PrefabInstance: {fileID: 1890375829}
  m_PrefabAsset: {fileID: 0}
--- !u!1001 &1937677775
PrefabInstance:
  m_ObjectHideFlags: 0
  serializedVersion: 2
  m_Modification:
    m_TransformParent: {fileID: 332136631}
    m_Modifications:
    - target: {fileID: 4018700724541672, guid: fb1342e2566442642a1b0da9756b066e, type: 2}
      propertyPath: m_LocalPosition.x
      value: 1.7737591
      objectReference: {fileID: 0}
    - target: {fileID: 4018700724541672, guid: fb1342e2566442642a1b0da9756b066e, type: 2}
      propertyPath: m_LocalPosition.y
      value: 0.6549097
      objectReference: {fileID: 0}
    - target: {fileID: 4018700724541672, guid: fb1342e2566442642a1b0da9756b066e, type: 2}
      propertyPath: m_LocalPosition.z
      value: 4.505157
      objectReference: {fileID: 0}
    - target: {fileID: 4018700724541672, guid: fb1342e2566442642a1b0da9756b066e, type: 2}
      propertyPath: m_LocalRotation.x
      value: 0.000000021855694
      objectReference: {fileID: 0}
    - target: {fileID: 4018700724541672, guid: fb1342e2566442642a1b0da9756b066e, type: 2}
      propertyPath: m_LocalRotation.y
      value: 0
      objectReference: {fileID: 0}
    - target: {fileID: 4018700724541672, guid: fb1342e2566442642a1b0da9756b066e, type: 2}
      propertyPath: m_LocalRotation.z
      value: -0
      objectReference: {fileID: 0}
    - target: {fileID: 4018700724541672, guid: fb1342e2566442642a1b0da9756b066e, type: 2}
      propertyPath: m_LocalRotation.w
      value: 1
      objectReference: {fileID: 0}
    - target: {fileID: 4018700724541672, guid: fb1342e2566442642a1b0da9756b066e, type: 2}
      propertyPath: m_RootOrder
      value: 10
      objectReference: {fileID: 0}
    m_RemovedComponents: []
  m_SourcePrefab: {fileID: 100100000, guid: fb1342e2566442642a1b0da9756b066e, type: 2}
--- !u!4 &1937677776 stripped
Transform:
  m_CorrespondingSourceObject: {fileID: 0}
  m_PrefabInstance: {fileID: 1937677775}
  m_PrefabAsset: {fileID: 0}
--- !u!1001 &1954109164
PrefabInstance:
  m_ObjectHideFlags: 0
  serializedVersion: 2
  m_Modification:
    m_TransformParent: {fileID: 332136631}
    m_Modifications:
    - target: {fileID: 4032608006118124, guid: 0e4460f2e6af8534883922004bca99b6, type: 3}
      propertyPath: m_LocalPosition.x
      value: 1.5754629
      objectReference: {fileID: 0}
    - target: {fileID: 4032608006118124, guid: 0e4460f2e6af8534883922004bca99b6, type: 3}
      propertyPath: m_LocalPosition.y
      value: 0
      objectReference: {fileID: 0}
    - target: {fileID: 4032608006118124, guid: 0e4460f2e6af8534883922004bca99b6, type: 3}
      propertyPath: m_LocalPosition.z
      value: -2.6253078
      objectReference: {fileID: 0}
    - target: {fileID: 4032608006118124, guid: 0e4460f2e6af8534883922004bca99b6, type: 3}
      propertyPath: m_LocalRotation.x
      value: 0.000000021855694
      objectReference: {fileID: 0}
    - target: {fileID: 4032608006118124, guid: 0e4460f2e6af8534883922004bca99b6, type: 3}
      propertyPath: m_LocalRotation.y
      value: 0
      objectReference: {fileID: 0}
    - target: {fileID: 4032608006118124, guid: 0e4460f2e6af8534883922004bca99b6, type: 3}
      propertyPath: m_LocalRotation.z
      value: -0
      objectReference: {fileID: 0}
    - target: {fileID: 4032608006118124, guid: 0e4460f2e6af8534883922004bca99b6, type: 3}
      propertyPath: m_LocalRotation.w
      value: 1
      objectReference: {fileID: 0}
    - target: {fileID: 4032608006118124, guid: 0e4460f2e6af8534883922004bca99b6, type: 3}
      propertyPath: m_RootOrder
      value: 34
      objectReference: {fileID: 0}
    m_RemovedComponents: []
  m_SourcePrefab: {fileID: 100100000, guid: 0e4460f2e6af8534883922004bca99b6, type: 3}
--- !u!4 &1954109165 stripped
Transform:
  m_CorrespondingSourceObject: {fileID: 4032608006118124, guid: 0e4460f2e6af8534883922004bca99b6,
    type: 3}
  m_PrefabInstance: {fileID: 1954109164}
  m_PrefabAsset: {fileID: 0}
--- !u!1001 &2017629614
PrefabInstance:
  m_ObjectHideFlags: 0
  serializedVersion: 2
  m_Modification:
    m_TransformParent: {fileID: 332136631}
    m_Modifications:
    - target: {fileID: 4132110684266712, guid: 0308f8ff86e69154a8064da3ef456125, type: 3}
      propertyPath: m_LocalPosition.x
      value: -5.6038756
      objectReference: {fileID: 0}
    - target: {fileID: 4132110684266712, guid: 0308f8ff86e69154a8064da3ef456125, type: 3}
      propertyPath: m_LocalPosition.y
      value: 0
      objectReference: {fileID: 0}
    - target: {fileID: 4132110684266712, guid: 0308f8ff86e69154a8064da3ef456125, type: 3}
      propertyPath: m_LocalPosition.z
      value: -2.712077
      objectReference: {fileID: 0}
    - target: {fileID: 4132110684266712, guid: 0308f8ff86e69154a8064da3ef456125, type: 3}
      propertyPath: m_LocalRotation.x
      value: 0.000000021855694
      objectReference: {fileID: 0}
    - target: {fileID: 4132110684266712, guid: 0308f8ff86e69154a8064da3ef456125, type: 3}
      propertyPath: m_LocalRotation.y
      value: 0
      objectReference: {fileID: 0}
    - target: {fileID: 4132110684266712, guid: 0308f8ff86e69154a8064da3ef456125, type: 3}
      propertyPath: m_LocalRotation.z
      value: -0
      objectReference: {fileID: 0}
    - target: {fileID: 4132110684266712, guid: 0308f8ff86e69154a8064da3ef456125, type: 3}
      propertyPath: m_LocalRotation.w
      value: 1
      objectReference: {fileID: 0}
    - target: {fileID: 4132110684266712, guid: 0308f8ff86e69154a8064da3ef456125, type: 3}
      propertyPath: m_RootOrder
      value: 38
      objectReference: {fileID: 0}
    m_RemovedComponents: []
  m_SourcePrefab: {fileID: 100100000, guid: 0308f8ff86e69154a8064da3ef456125, type: 3}
--- !u!4 &2017629615 stripped
Transform:
  m_CorrespondingSourceObject: {fileID: 4132110684266712, guid: 0308f8ff86e69154a8064da3ef456125,
    type: 3}
  m_PrefabInstance: {fileID: 2017629614}
  m_PrefabAsset: {fileID: 0}
--- !u!1001 &2019541253
PrefabInstance:
  m_ObjectHideFlags: 0
  serializedVersion: 2
  m_Modification:
    m_TransformParent: {fileID: 332136631}
    m_Modifications:
    - target: {fileID: 4482064274725146, guid: 2d561752e6200834db6fb19d8d3220b2, type: 3}
      propertyPath: m_LocalPosition.x
      value: -6.420842
      objectReference: {fileID: 0}
    - target: {fileID: 4482064274725146, guid: 2d561752e6200834db6fb19d8d3220b2, type: 3}
      propertyPath: m_LocalPosition.y
      value: 1.1676024
      objectReference: {fileID: 0}
    - target: {fileID: 4482064274725146, guid: 2d561752e6200834db6fb19d8d3220b2, type: 3}
      propertyPath: m_LocalPosition.z
      value: 3.257024
      objectReference: {fileID: 0}
    - target: {fileID: 4482064274725146, guid: 2d561752e6200834db6fb19d8d3220b2, type: 3}
      propertyPath: m_LocalRotation.x
      value: 0.000000021855694
      objectReference: {fileID: 0}
    - target: {fileID: 4482064274725146, guid: 2d561752e6200834db6fb19d8d3220b2, type: 3}
      propertyPath: m_LocalRotation.y
      value: 0
      objectReference: {fileID: 0}
    - target: {fileID: 4482064274725146, guid: 2d561752e6200834db6fb19d8d3220b2, type: 3}
      propertyPath: m_LocalRotation.z
      value: -0
      objectReference: {fileID: 0}
    - target: {fileID: 4482064274725146, guid: 2d561752e6200834db6fb19d8d3220b2, type: 3}
      propertyPath: m_LocalRotation.w
      value: 1
      objectReference: {fileID: 0}
    - target: {fileID: 4482064274725146, guid: 2d561752e6200834db6fb19d8d3220b2, type: 3}
      propertyPath: m_RootOrder
      value: 2
      objectReference: {fileID: 0}
    m_RemovedComponents: []
  m_SourcePrefab: {fileID: 100100000, guid: 2d561752e6200834db6fb19d8d3220b2, type: 3}
--- !u!4 &2019541254 stripped
Transform:
  m_CorrespondingSourceObject: {fileID: 4482064274725146, guid: 2d561752e6200834db6fb19d8d3220b2,
    type: 3}
  m_PrefabInstance: {fileID: 2019541253}
  m_PrefabAsset: {fileID: 0}
--- !u!1001 &2045681762
PrefabInstance:
  m_ObjectHideFlags: 0
  serializedVersion: 2
  m_Modification:
    m_TransformParent: {fileID: 332136631}
    m_Modifications:
    - target: {fileID: 4090756587851024, guid: 11be0398bf08b574c839d66a800c6174, type: 3}
      propertyPath: m_LocalPosition.x
      value: 0.45398664
      objectReference: {fileID: 0}
    - target: {fileID: 4090756587851024, guid: 11be0398bf08b574c839d66a800c6174, type: 3}
      propertyPath: m_LocalPosition.y
      value: 0.09711752
      objectReference: {fileID: 0}
    - target: {fileID: 4090756587851024, guid: 11be0398bf08b574c839d66a800c6174, type: 3}
      propertyPath: m_LocalPosition.z
      value: 5.645273
      objectReference: {fileID: 0}
    - target: {fileID: 4090756587851024, guid: 11be0398bf08b574c839d66a800c6174, type: 3}
      propertyPath: m_LocalRotation.x
      value: 0.000000021855694
      objectReference: {fileID: 0}
    - target: {fileID: 4090756587851024, guid: 11be0398bf08b574c839d66a800c6174, type: 3}
      propertyPath: m_LocalRotation.y
      value: 0
      objectReference: {fileID: 0}
    - target: {fileID: 4090756587851024, guid: 11be0398bf08b574c839d66a800c6174, type: 3}
      propertyPath: m_LocalRotation.z
      value: -0
      objectReference: {fileID: 0}
    - target: {fileID: 4090756587851024, guid: 11be0398bf08b574c839d66a800c6174, type: 3}
      propertyPath: m_LocalRotation.w
      value: 1
      objectReference: {fileID: 0}
    - target: {fileID: 4090756587851024, guid: 11be0398bf08b574c839d66a800c6174, type: 3}
      propertyPath: m_RootOrder
      value: 3
      objectReference: {fileID: 0}
    m_RemovedComponents: []
  m_SourcePrefab: {fileID: 100100000, guid: 11be0398bf08b574c839d66a800c6174, type: 3}
--- !u!4 &2045681763 stripped
Transform:
  m_CorrespondingSourceObject: {fileID: 4090756587851024, guid: 11be0398bf08b574c839d66a800c6174,
    type: 3}
  m_PrefabInstance: {fileID: 2045681762}
  m_PrefabAsset: {fileID: 0}
--- !u!1001 &2120235161
PrefabInstance:
  m_ObjectHideFlags: 0
  serializedVersion: 2
  m_Modification:
    m_TransformParent: {fileID: 332136631}
    m_Modifications:
    - target: {fileID: 4552243802719944, guid: 06feddaacfebcc845a71837d24b4ed20, type: 3}
      propertyPath: m_LocalPosition.x
      value: 5.075816
      objectReference: {fileID: 0}
    - target: {fileID: 4552243802719944, guid: 06feddaacfebcc845a71837d24b4ed20, type: 3}
      propertyPath: m_LocalPosition.y
      value: 0
      objectReference: {fileID: 0}
    - target: {fileID: 4552243802719944, guid: 06feddaacfebcc845a71837d24b4ed20, type: 3}
      propertyPath: m_LocalPosition.z
      value: -5.1058893
      objectReference: {fileID: 0}
    - target: {fileID: 4552243802719944, guid: 06feddaacfebcc845a71837d24b4ed20, type: 3}
      propertyPath: m_LocalRotation.x
      value: 0.000000021855694
      objectReference: {fileID: 0}
    - target: {fileID: 4552243802719944, guid: 06feddaacfebcc845a71837d24b4ed20, type: 3}
      propertyPath: m_LocalRotation.y
      value: 0
      objectReference: {fileID: 0}
    - target: {fileID: 4552243802719944, guid: 06feddaacfebcc845a71837d24b4ed20, type: 3}
      propertyPath: m_LocalRotation.z
      value: -0
      objectReference: {fileID: 0}
    - target: {fileID: 4552243802719944, guid: 06feddaacfebcc845a71837d24b4ed20, type: 3}
      propertyPath: m_LocalRotation.w
      value: 1
      objectReference: {fileID: 0}
    - target: {fileID: 4552243802719944, guid: 06feddaacfebcc845a71837d24b4ed20, type: 3}
      propertyPath: m_RootOrder
      value: 28
      objectReference: {fileID: 0}
    m_RemovedComponents: []
  m_SourcePrefab: {fileID: 100100000, guid: 06feddaacfebcc845a71837d24b4ed20, type: 3}
--- !u!4 &2120235162 stripped
Transform:
  m_CorrespondingSourceObject: {fileID: 4552243802719944, guid: 06feddaacfebcc845a71837d24b4ed20,
    type: 3}
  m_PrefabInstance: {fileID: 2120235161}
  m_PrefabAsset: {fileID: 0}
